{
  "name": "Abyss Rising",
  "shortName": "abyr",
  "list": [
    {
      "name": "Ignoble Knight of Black Laundsallyn",
      "rarity": "SR",
      "cardType": "Monster",
      "monsterType": [
        "Effect"
      ]
    },
    {
      "name": "Gagaga Caesar",
      "rarity": "R",
      "cardType": "Monster",
      "monsterType": [
        "Effect"
      ]
    },
    {
      "name": "Bull Blader",
      "rarity": "C",
      "cardType": "Monster",
      "monsterType": [
        "Effect"
      ]
    },
    {
      "name": "Achacha Chanbara",
      "rarity": "C",
      "cardType": "Monster",
      "monsterType": [
        "Effect"
      ]
    },
    {
      "name": "Mogmole",
      "rarity": "C",
      "cardType": "Monster",
      "monsterType": [
        "Effect"
      ]
    },
    {
      "name": "Grandram",
      "rarity": "C",
      "cardType": "Monster",
      "monsterType": [
        "Effect"
      ]
    },
    {
      "name": "Tripod Fish",
      "rarity": "C",
      "cardType": "Monster",
      "monsterType": [
        "Effect"
      ]
    },
    {
      "name": "Deep Sweeper",
      "rarity": "C",
      "cardType": "Monster",
      "monsterType": [
        "Effect"
      ]
    },
    {
      "name": "Heroic Challenger - Extra Sword",
      "rarity": "C",
      "cardType": "Monster",
      "monsterType": [
        "Effect"
      ]
    },
    {
      "name": "Heroic Challenger - Night Watchman",
      "rarity": "C",
      "cardType": "Monster",
      "monsterType": [
        "Effect"
      ]
    },
    {
      "name": "Planet Pathfinder",
      "rarity": "C",
      "cardType": "Monster",
      "monsterType": [
        "Effect"
      ]
    },
    {
      "name": "Solar Wind Jammer",
      "rarity": "C",
      "cardType": "Monster",
      "monsterType": [
        "Effect"
      ]
    },
    {
      "name": "Heraldic Beast Aberconway",
      "rarity": "C",
      "cardType": "Monster",
      "monsterType": [
        "Effect"
      ]
    },
    {
      "name": "Heraldic Beast Berners Falcon",
      "rarity": "C",
      "cardType": "Monster",
      "monsterType": [
        "Effect"
      ]
    },
    {
      "name": "Mermail Abysslinde",
      "rarity": "UR",
      "cardType": "Monster",
      "monsterType": [
        "Effect"
      ]
    },
    {
      "name": "Mermail Abyssgunde",
      "rarity": "R",
      "cardType": "Monster",
      "monsterType": [
        "Effect"
      ]
    },
    {
      "name": "Mermail Abysshilde",
      "rarity": "C",
      "cardType": "Monster",
      "monsterType": [
        "Effect"
      ]
    },
    {
      "name": "Mermail Abyssturge",
      "rarity": "R",
      "cardType": "Monster",
      "monsterType": [
        "Effect"
      ]
    },
    {
      "name": "Mermail Abysspike",
      "rarity": "R",
      "cardType": "Monster",
      "monsterType": [
        "Effect"
      ]
    },
    {
      "name": "Mermail Abysslung",
      "rarity": "C",
      "cardType": "Monster",
      "monsterType": [
        "Effect"
      ]
    },
    {
      "name": "Mermail Abyssmegalo",
      "rarity": "SCR",
      "cardType": "Monster",
      "monsterType": [
        "Effect"
      ]
    },
    {
      "name": "Stoic of Prophecy",
      "rarity": "C",
      "cardType": "Monster",
      "monsterType": [
        "Effect"
      ]
    },
    {
      "name": "Hermit of Prophecy",
      "rarity": "C",
      "cardType": "Monster",
      "monsterType": [
        "Effect"
      ]
    },
    {
      "name": "Justice of Prophecy",
      "rarity": "R",
      "cardType": "Monster",
      "monsterType": [
        "Effect"
      ]
    },
    {
      "name": "Emperor of Prophecy",
      "rarity": "R",
      "cardType": "Monster",
      "monsterType": [
        "Effect"
      ]
    },
    {
      "name": "Madolche Cruffssant",
      "rarity": "C",
      "cardType": "Monster",
      "monsterType": [
        "Effect"
      ]
    },
    {
      "name": "Madolche Marmalmaide",
      "rarity": "C",
      "cardType": "Monster",
      "monsterType": [
        "Effect"
      ]
    },
    {
      "name": "Madolche Messengelato",
      "rarity": "R",
      "cardType": "Monster",
      "monsterType": [
        "Effect"
      ]
    },
    {
      "name": "Abyss Warrior",
      "rarity": "C",
      "cardType": "Monster",
      "monsterType": [
        "Effect"
      ]
    },
    {
      "name": "Snowman Creator",
      "rarity": "C",
      "cardType": "Monster",
      "monsterType": [
        "Effect"
      ]
    },
    {
      "name": "Fishborg Planter",
      "rarity": "C",
      "cardType": "Monster",
      "monsterType": [
        "Effect"
      ]
    },
    {
      "name": "Nimble Angler",
      "rarity": "C",
      "cardType": "Monster",
      "monsterType": [
        "Effect"
      ]
    },
    {
      "name": "Shore Knight",
      "rarity": "R",
      "cardType": "Monster",
      "monsterType": [
        "Effect"
      ]
    },
    {
      "name": "Mecha Sea Dragon Plesion",
      "rarity": "C",
      "cardType": "Monster",
      "monsterType": [
        "Effect"
      ]
    },
    {
      "name": "Metallizing Parasite - Soltite",
      "rarity": "C",
      "cardType": "Monster",
      "monsterType": [
        "Effect"
      ]
    },
    {
      "name": "Moulinglacia the Elemental Lord",
      "rarity": "SCR",
      "cardType": "Monster",
      "monsterType": [
        "Effect"
      ]
    },
    {
      "name": "House Duston",
      "rarity": "C",
      "cardType": "Monster",
      "monsterType": [
        "Effect"
      ]
    },
    {
      "name": "Puny Penguin",
      "rarity": "SP",
      "cardType": "Monster",
      "monsterType": [
        "Effect"
      ]
    },
    {
      "name": "Missing Force",
      "rarity": "SP",
      "cardType": "Monster",
      "monsterType": [
        "Effect"
      ]
    },
    {
      "name": "Number C32: Shark Drake Veiss",
      "rarity": "UR",
      "cardType": "Monster",
      "monsterType": [
        "Xyz"
      ]
    },
    {
      "name": "One-Eyed Skill Gainer",
      "rarity": "SR",
      "cardType": "Monster",
      "monsterType": [
        "Xyz"
      ]
    },
    {
      "name": "Gagaga Cowboy",
      "rarity": "SR",
      "cardType": "Monster",
      "monsterType": [
        "Xyz"
      ]
    },
    {
      "name": "Heroic Champion - Gandiva",
      "rarity": "UR",
      "cardType": "Monster",
      "monsterType": [
        "Xyz"
      ]
    },
    {
      "name": "Heroic Champion - Kusanagi",
      "rarity": "SR",
      "cardType": "Monster",
      "monsterType": [
        "Xyz"
      ]
    },
    {
      "name": "Number 9: Dyson Sphere",
      "rarity": "UR",
      "cardType": "Monster",
      "monsterType": [
        "Xyz"
      ]
    },
    {
      "name": "Number 8: Heraldic King Genom-Heritage",
      "rarity": "SR",
      "cardType": "Monster",
      "monsterType": [
        "Xyz"
      ]
    },
    {
      "name": "Mermail Abyssgaios",
      "rarity": "UR",
      "cardType": "Monster",
      "monsterType": [
        "Xyz"
      ]
    },
    {
      "name": "Empress of Prophecy",
      "rarity": "UR",
      "cardType": "Monster",
      "monsterType": [
        "Xyz"
      ]
    },
    {
      "name": "Madolche Queen Tiaramisu",
      "rarity": "UR",
      "cardType": "Monster",
      "monsterType": [
        "Xyz"
      ]
    },
    {
      "name": "Snowdust Giant‎",
      "rarity": "R",
      "cardType": "Monster",
      "monsterType": [
        "Xyz"
      ]
    },
    {
      "name": "Gagagigo the Risen",
      "rarity": "R",
      "cardType": "Monster",
      "monsterType": [
        "Xyz"
      ]
    },
    {
      "name": "One-Shot Wand",
      "rarity": "C",
      "cardType": "Spell"
    },
    {
      "name": "Different Dimension Deepsea Trench",
      "rarity": "C",
      "cardType": "Spell"
    },
    {
      "name": "Tannhauser Gate",
      "rarity": "SR",
      "cardType": "Spell"
    },
    {
      "name": "Gravity Blaster",
      "rarity": "C",
      "cardType": "Spell"
    },
    {
      "name": "Advanced Heraldry Art",
      "rarity": "R",
      "cardType": "Spell"
    },
    {
      "name": "Abyss-scale of the Kraken",
      "rarity": "C",
      "cardType": "Spell"
    },
    {
      "name": "Lemuria, the Forgotten City",
      "rarity": "C",
      "cardType": "Spell"
    },
    {
      "name": "Spellbook of Eternity",
      "rarity": "R",
      "cardType": "Spell"
    },
    {
      "name": "Spellbook of Fate",
      "rarity": "UR",
      "cardType": "Spell"
    },
    {
      "name": "The Grand Spellbook Tower",
      "rarity": "SCR",
      "cardType": "Spell"
    },
    {
      "name": "Madolche Ticket",
      "rarity": "C",
      "cardType": "Spell"
    },
    {
      "name": "Forbidden Dress",
      "rarity": "SR",
      "cardType": "Spell"
    },
    {
      "name": "Final Gesture",
      "rarity": "C",
      "cardType": "Spell"
    },
    {
      "name": "Mind Pollutant",
      "rarity": "R",
      "cardType": "Spell"
    },
    {
      "name": "The Humble Sentry",
      "rarity": "SP",
      "cardType": "Spell"
    },
    {
      "name": "Battle Break",
      "rarity": "C",
      "cardType": "Trap"
    },
    {
      "name": "Bubble Bringer",
      "rarity": "SR",
      "cardType": "Trap"
    },
    {
      "name": "Heroic Gift",
      "rarity": "C",
      "cardType": "Trap"
    },
    {
      "name": "Heroic Advance",
      "rarity": "C",
      "cardType": "Trap"
    },
    {
      "name": "Xyz Xtreme !!",
      "rarity": "C",
      "cardType": "Trap"
    },
    {
      "name": "Abyss-squall",
      "rarity": "SR",
      "cardType": "Trap"
    },
    {
      "name": "Abyss-sphere",
      "rarity": "UR",
      "cardType": "Trap"
    },
    {
      "name": "Abyss-strom",
      "rarity": "R",
      "cardType": "Trap"
    },
    {
      "name": "Madolchepalooza",
      "rarity": "SR",
      "cardType": "Trap"
    },
    {
      "name": "Memory of an Adversary",
      "rarity": "SR",
      "cardType": "Trap"
    },
    {
      "name": "Magic Deflector",
      "rarity": "C",
      "cardType": "Trap"
    },
    {
      "name": "That Wacky Alchemy!",
      "rarity": "UR",
      "cardType": "Trap"
    },
    {
      "name": "Cash Back",
      "rarity": "SP",
      "cardType": "Trap"
    },
    {
      "name": "Unification",
      "rarity": "C",
      "cardType": "Trap"
    },
    {
      "name": "Retort",
      "rarity": "SCR",
      "cardType": "Trap"
    },
    {
      "name": "Mermail Abyssmander",
      "rarity": "R",
      "cardType": "Monster",
      "monsterType": [
        "Effect"
      ]
    },
    {
      "name": "Red Dragon Ninja",
      "rarity": "SR",
      "cardType": "Monster",
      "monsterType": [
        "Effect"
      ]
    },
    {
      "name": "Slushy",
      "rarity": "R",
      "cardType": "Monster",
      "monsterType": [
        "Effect"
      ]
    },
    {
      "name": "Abyss Dweller",
      "rarity": "SR",
      "cardType": "Monster",
      "monsterType": [
        "Xyz"
      ]
    },
    {
      "name": "Giant Soldier of Steel",
      "rarity": "SCR",
      "cardType": "Monster",
      "monsterType": [
        "Xyz"
      ]
    },
    {
      "name": "Noble Arms - Arfeudutyr",
      "rarity": "R",
      "cardType": "Spell"
    },
    {
      "name": "Spellbook Library of the Heliosphere",
      "rarity": "SCR",
      "cardType": "Spell"
    },
    {
      "name": "Spellbook Star Hall",
      "rarity": "R",
      "cardType": "Spell"
    },
    {
      "name": "Attack the Moon!",
      "rarity": "SR",
      "cardType": "Spell"
    },
    {
      "name": "Electromagnetic Bagworm",
      "rarity": "C",
      "cardType": "Monster",
      "monsterType": [
        "Effect"
      ]
    },
    {
      "name": "Rage of the Deep Sea",
      "rarity": "C",
      "cardType": "Monster",
      "monsterType": [
        "Effect"
      ]
    },
    {
      "name": "Ape Magician",
      "rarity": "C",
      "cardType": "Monster",
      "monsterType": [
        "Effect"
      ]
    },
    {
      "name": "Snowdust Dragon",
      "rarity": "C",
      "cardType": "Monster",
      "monsterType": [
        "Effect"
      ]
    },
    {
      "name": "Snow Dragon",
      "rarity": "C",
      "cardType": "Monster",
      "monsterType": [
        "Effect"
      ]
    },
    {
      "name": "Uminotaurus",
      "rarity": "R",
      "cardType": "Monster",
      "monsterType": [
        "Effect"
      ]
    },
    {
      "name": "Fishborg Launcher",
      "rarity": "C",
      "cardType": "Monster",
      "monsterType": [
        "Effect"
      ]
    },
    {
      "name": "Papa-Corn",
      "rarity": "R",
      "cardType": "Monster",
      "monsterType": [
        "Effect"
      ]
    },
    {
      "name": "Thunder Sea Horse",
      "rarity": "SCR",
      "cardType": "Monster",
      "monsterType": [
        "Effect"
      ]
    },
    {
      "name": "Bahamut Shark",
      "rarity": "SCR",
      "cardType": "Monster",
      "monsterType": [
        "Xyz"
      ]
    }
  ]
}