{
  "name": "Battle Pack 3: Monster League",
  "shortName": "bp03",
  "list": [
    {
      "name": "Jerry Beans Man",
      "rarity": "C",
      "cardType": "Monster",
      "monsterType": [
        "Normal"
      ]
    },
    {
      "name": "Bazoo the Soul-Eater",
      "rarity": "C",
      "cardType": "Monster",
      "monsterType": [
        "Effect"
      ]
    },
    {
      "name": "Frontier Wiseman",
      "rarity": "C",
      "cardType": "Monster",
      "monsterType": [
        "Effect"
      ]
    },
    {
      "name": "Arsenal Bug",
      "rarity": "R",
      "cardType": "Monster",
      "monsterType": [
        "Effect"
      ]
    },
    {
      "name": "Breaker the Magical Warrior",
      "rarity": "R",
      "cardType": "Monster",
      "monsterType": [
        "Effect"
      ]
    },
    {
      "name": "Mudora",
      "rarity": "R",
      "cardType": "Monster",
      "monsterType": [
        "Effect"
      ]
    },
    {
      "name": "Gale Lizard",
      "rarity": "C",
      "cardType": "Monster",
      "monsterType": [
        "Effect"
      ]
    },
    {
      "name": "Berserk Gorilla",
      "rarity": "R",
      "cardType": "Monster",
      "monsterType": [
        "Effect"
      ]
    },
    {
      "name": "Lord Poison",
      "rarity": "C",
      "cardType": "Monster",
      "monsterType": [
        "Effect"
      ]
    },
    {
      "name": "Sacred Crane",
      "rarity": "C",
      "cardType": "Monster",
      "monsterType": [
        "Effect"
      ]
    },
    {
      "name": "Enraged Battle Ox",
      "rarity": "C",
      "cardType": "Monster",
      "monsterType": [
        "Effect"
      ]
    },
    {
      "name": "Hyper Hammerhead",
      "rarity": "C",
      "cardType": "Monster",
      "monsterType": [
        "Effect"
      ]
    },
    {
      "name": "Slate Warrior",
      "rarity": "R",
      "cardType": "Monster",
      "monsterType": [
        "Effect"
      ]
    },
    {
      "name": "Toon Gemini Elf",
      "rarity": "R",
      "cardType": "Monster",
      "monsterType": [
        "Effect"
      ]
    },
    {
      "name": "Chiron the Mage",
      "rarity": "R",
      "cardType": "Monster",
      "monsterType": [
        "Effect"
      ]
    },
    {
      "name": "Gyroid",
      "rarity": "C",
      "cardType": "Monster",
      "monsterType": [
        "Effect"
      ]
    },
    {
      "name": "Goblin Elite Attack Force",
      "rarity": "R",
      "cardType": "Monster",
      "monsterType": [
        "Effect"
      ]
    },
    {
      "name": "Mythical Beast Cerberus",
      "rarity": "C",
      "cardType": "Monster",
      "monsterType": [
        "Effect"
      ]
    },
    {
      "name": "Machine King Prototype",
      "rarity": "R",
      "cardType": "Monster",
      "monsterType": [
        "Effect"
      ]
    },
    {
      "name": "Cyber Phoenix",
      "rarity": "C",
      "cardType": "Monster",
      "monsterType": [
        "Effect"
      ]
    },
    {
      "name": "Victory Viper XX03",
      "rarity": "C",
      "cardType": "Monster",
      "monsterType": [
        "Effect"
      ]
    },
    {
      "name": "Herald of Green Light",
      "rarity": "C",
      "cardType": "Monster",
      "monsterType": [
        "Effect"
      ]
    },
    {
      "name": "Herald of Purple Light",
      "rarity": "C",
      "cardType": "Monster",
      "monsterType": [
        "Effect"
      ]
    },
    {
      "name": "Submarineroid",
      "rarity": "C",
      "cardType": "Monster",
      "monsterType": [
        "Effect"
      ]
    },
    {
      "name": "Black Stego",
      "rarity": "C",
      "cardType": "Monster",
      "monsterType": [
        "Effect"
      ]
    },
    {
      "name": "Card Trooper",
      "rarity": "R",
      "cardType": "Monster",
      "monsterType": [
        "Effect"
      ]
    },
    {
      "name": "Freya, Spirit of Victory",
      "rarity": "C",
      "cardType": "Monster",
      "monsterType": [
        "Effect"
      ]
    },
    {
      "name": "Exploder Dragon",
      "rarity": "C",
      "cardType": "Monster",
      "monsterType": [
        "Effect"
      ]
    },
    {
      "name": "Dweller in the Depths",
      "rarity": "C",
      "cardType": "Monster",
      "monsterType": [
        "Effect"
      ]
    },
    {
      "name": "Winged Rhynos",
      "rarity": "R",
      "cardType": "Monster",
      "monsterType": [
        "Effect"
      ]
    },
    {
      "name": "Blizzard Dragon",
      "rarity": "R",
      "cardType": "Monster",
      "monsterType": [
        "Effect"
      ]
    },
    {
      "name": "Evil HERO Infernal Gainer",
      "rarity": "C",
      "cardType": "Monster",
      "monsterType": [
        "Effect"
      ]
    },
    {
      "name": "Ancient Gear Knight",
      "rarity": "R",
      "cardType": "Monster",
      "monsterType": [
        "Effect"
      ]
    },
    {
      "name": "Royal Firestorm Guards",
      "rarity": "R",
      "cardType": "Monster",
      "monsterType": [
        "Effect"
      ]
    },
    {
      "name": "Dark Crusader",
      "rarity": "C",
      "cardType": "Monster",
      "monsterType": [
        "Effect"
      ]
    },
    {
      "name": "The Immortal Bushi",
      "rarity": "C",
      "cardType": "Monster",
      "monsterType": [
        "Effect"
      ]
    },
    {
      "name": "Black Veloci",
      "rarity": "R",
      "cardType": "Monster",
      "monsterType": [
        "Effect"
      ]
    },
    {
      "name": "Sea Koala",
      "rarity": "C",
      "cardType": "Monster",
      "monsterType": [
        "Effect"
      ]
    },
    {
      "name": "Blue Thunder T-45",
      "rarity": "R",
      "cardType": "Monster",
      "monsterType": [
        "Effect"
      ]
    },
    {
      "name": "Golden Flying Fish",
      "rarity": "R",
      "cardType": "Monster",
      "monsterType": [
        "Effect"
      ]
    },
    {
      "name": "Aztekipede, the Worm Warrior",
      "rarity": "R",
      "cardType": "Monster",
      "monsterType": [
        "Effect"
      ]
    },
    {
      "name": "Jain, Lightsworn Paladin",
      "rarity": "R",
      "cardType": "Monster",
      "monsterType": [
        "Effect"
      ]
    },
    {
      "name": "Diskblade Rider",
      "rarity": "R",
      "cardType": "Monster",
      "monsterType": [
        "Effect"
      ]
    },
    {
      "name": "Magical Exemplar",
      "rarity": "R",
      "cardType": "Monster",
      "monsterType": [
        "Effect"
      ]
    },
    {
      "name": "Rigorous Reaver",
      "rarity": "C",
      "cardType": "Monster",
      "monsterType": [
        "Effect"
      ]
    },
    {
      "name": "Mezuki",
      "rarity": "R",
      "cardType": "Monster",
      "monsterType": [
        "Effect"
      ]
    },
    {
      "name": "Gonogo",
      "rarity": "C",
      "cardType": "Monster",
      "monsterType": [
        "Effect"
      ]
    },
    {
      "name": "Telekinetic Shocker",
      "rarity": "R",
      "cardType": "Monster",
      "monsterType": [
        "Effect"
      ]
    },
    {
      "name": "Destructotron",
      "rarity": "C",
      "cardType": "Monster",
      "monsterType": [
        "Effect"
      ]
    },
    {
      "name": "Herald of Orange Light",
      "rarity": "C",
      "cardType": "Monster",
      "monsterType": [
        "Effect"
      ]
    },
    {
      "name": "Psychic Jumper",
      "rarity": "C",
      "cardType": "Monster",
      "monsterType": [
        "Effect"
      ]
    },
    {
      "name": "Seed of Flame",
      "rarity": "C",
      "cardType": "Monster",
      "monsterType": [
        "Effect"
      ]
    },
    {
      "name": "Cross-Sword Beetle",
      "rarity": "R",
      "cardType": "Monster",
      "monsterType": [
        "Effect"
      ]
    },
    {
      "name": "Defender, the Magical Knight",
      "rarity": "C",
      "cardType": "Monster",
      "monsterType": [
        "Effect"
      ]
    },
    {
      "name": "Battlestorm",
      "rarity": "R",
      "cardType": "Monster",
      "monsterType": [
        "Effect"
      ]
    },
    {
      "name": "Koa'ki Meiru Guardian",
      "rarity": "R",
      "cardType": "Monster",
      "monsterType": [
        "Effect"
      ]
    },
    {
      "name": "Koa'ki Meiru Drago",
      "rarity": "R",
      "cardType": "Monster",
      "monsterType": [
        "Effect"
      ]
    },
    {
      "name": "Koa'ki Meiru Doom",
      "rarity": "R",
      "cardType": "Monster",
      "monsterType": [
        "Effect"
      ]
    },
    {
      "name": "Spined Gillman",
      "rarity": "R",
      "cardType": "Monster",
      "monsterType": [
        "Effect"
      ]
    },
    {
      "name": "Vanguard of the Dragon",
      "rarity": "R",
      "cardType": "Monster",
      "monsterType": [
        "Effect"
      ]
    },
    {
      "name": "Koa'ki Meiru War Arms",
      "rarity": "C",
      "cardType": "Monster",
      "monsterType": [
        "Effect"
      ]
    },
    {
      "name": "Tree Otter",
      "rarity": "C",
      "cardType": "Monster",
      "monsterType": [
        "Effect"
      ]
    },
    {
      "name": "X-Saber Airbellum",
      "rarity": "C",
      "cardType": "Monster",
      "monsterType": [
        "Effect"
      ]
    },
    {
      "name": "Sunlight Unicorn",
      "rarity": "R",
      "cardType": "Monster",
      "monsterType": [
        "Effect"
      ]
    },
    {
      "name": "Card Guard",
      "rarity": "R",
      "cardType": "Monster",
      "monsterType": [
        "Effect"
      ]
    },
    {
      "name": "Koa'ki Meiru Beetle",
      "rarity": "R",
      "cardType": "Monster",
      "monsterType": [
        "Effect"
      ]
    },
    {
      "name": "Reptilianne Gorgon",
      "rarity": "C",
      "cardType": "Monster",
      "monsterType": [
        "Effect"
      ]
    },
    {
      "name": "Metabo-Shark",
      "rarity": "R",
      "cardType": "Monster",
      "monsterType": [
        "Effect"
      ]
    },
    {
      "name": "Shutendoji",
      "rarity": "C",
      "cardType": "Monster",
      "monsterType": [
        "Effect"
      ]
    },
    {
      "name": "Gauntlet Warrior",
      "rarity": "C",
      "cardType": "Monster",
      "monsterType": [
        "Effect"
      ]
    },
    {
      "name": "Shreddder",
      "rarity": "C",
      "cardType": "Monster",
      "monsterType": [
        "Effect"
      ]
    },
    {
      "name": "Koa'ki Meiru Sandman",
      "rarity": "R",
      "cardType": "Monster",
      "monsterType": [
        "Effect"
      ]
    },
    {
      "name": "Jurrac Protops",
      "rarity": "C",
      "cardType": "Monster",
      "monsterType": [
        "Effect"
      ]
    },
    {
      "name": "Mist Valley Falcon",
      "rarity": "R",
      "cardType": "Monster",
      "monsterType": [
        "Effect"
      ]
    },
    {
      "name": "Trident Warrior",
      "rarity": "R",
      "cardType": "Monster",
      "monsterType": [
        "Effect"
      ]
    },
    {
      "name": "Rhinotaurus",
      "rarity": "R",
      "cardType": "Monster",
      "monsterType": [
        "Effect"
      ]
    },
    {
      "name": "Hypnocorn",
      "rarity": "C",
      "cardType": "Monster",
      "monsterType": [
        "Effect"
      ]
    },
    {
      "name": "Stygian Street Patrol",
      "rarity": "C",
      "cardType": "Monster",
      "monsterType": [
        "Effect"
      ]
    },
    {
      "name": "Fabled Ashenveil",
      "rarity": "C",
      "cardType": "Monster",
      "monsterType": [
        "Effect"
      ]
    },
    {
      "name": "Chain Dog",
      "rarity": "C",
      "cardType": "Monster",
      "monsterType": [
        "Effect"
      ]
    },
    {
      "name": "Koa'ki Meiru Wall",
      "rarity": "R",
      "cardType": "Monster",
      "monsterType": [
        "Effect"
      ]
    },
    {
      "name": "Genex Ally Bellflame",
      "rarity": "R",
      "cardType": "Monster",
      "monsterType": [
        "Effect"
      ]
    },
    {
      "name": "Meklord Army of Granel",
      "rarity": "C",
      "cardType": "Monster",
      "monsterType": [
        "Effect"
      ]
    },
    {
      "name": "Silent Psychic Wizard",
      "rarity": "R",
      "cardType": "Monster",
      "monsterType": [
        "Effect"
      ]
    },
    {
      "name": "Dodger Dragon",
      "rarity": "R",
      "cardType": "Monster",
      "monsterType": [
        "Effect"
      ]
    },
    {
      "name": "Wind-Up Juggler",
      "rarity": "R",
      "cardType": "Monster",
      "monsterType": [
        "Effect"
      ]
    },
    {
      "name": "Airorca",
      "rarity": "C",
      "cardType": "Monster",
      "monsterType": [
        "Effect"
      ]
    },
    {
      "name": "Time Escaper",
      "rarity": "C",
      "cardType": "Monster",
      "monsterType": [
        "Effect"
      ]
    },
    {
      "name": "Lion Alligator",
      "rarity": "R",
      "cardType": "Monster",
      "monsterType": [
        "Effect"
      ]
    },
    {
      "name": "Friller Rabca",
      "rarity": "C",
      "cardType": "Monster",
      "monsterType": [
        "Effect"
      ]
    },
    {
      "name": "Vylon Ohm",
      "rarity": "C",
      "cardType": "Monster",
      "monsterType": [
        "Effect"
      ]
    },
    {
      "name": "Shocktopus",
      "rarity": "C",
      "cardType": "Monster",
      "monsterType": [
        "Effect"
      ]
    },
    {
      "name": "Chow Len the Prophet",
      "rarity": "R",
      "cardType": "Monster",
      "monsterType": [
        "Effect"
      ]
    },
    {
      "name": "Vampire Koala",
      "rarity": "R",
      "cardType": "Monster",
      "monsterType": [
        "Effect"
      ]
    },
    {
      "name": "Flame Tiger",
      "rarity": "R",
      "cardType": "Monster",
      "monsterType": [
        "Effect"
      ]
    },
    {
      "name": "Tardy Orc",
      "rarity": "R",
      "cardType": "Monster",
      "monsterType": [
        "Effect"
      ]
    },
    {
      "name": "Madolche Baaple",
      "rarity": "C",
      "cardType": "Monster",
      "monsterType": [
        "Effect"
      ]
    },
    {
      "name": "Evilswarm Ketos",
      "rarity": "R",
      "cardType": "Monster",
      "monsterType": [
        "Effect"
      ]
    },
    {
      "name": "Evilswarm O'lantern",
      "rarity": "C",
      "cardType": "Monster",
      "monsterType": [
        "Effect"
      ]
    },
    {
      "name": "Electromagnetic Bagworm",
      "rarity": "C",
      "cardType": "Monster",
      "monsterType": [
        "Effect"
      ]
    },
    {
      "name": "Uminotaurus",
      "rarity": "C",
      "cardType": "Monster",
      "monsterType": [
        "Effect"
      ]
    },
    {
      "name": "Leotaur",
      "rarity": "R",
      "cardType": "Monster",
      "monsterType": [
        "Effect"
      ]
    },
    {
      "name": "Aye-Iron",
      "rarity": "R",
      "cardType": "Monster",
      "monsterType": [
        "Effect"
      ]
    },
    {
      "name": "Evilswarm Thunderbird",
      "rarity": "C",
      "cardType": "Monster",
      "monsterType": [
        "Effect"
      ]
    },
    {
      "name": "Magical Undertaker",
      "rarity": "C",
      "cardType": "Monster",
      "monsterType": [
        "Effect"
      ]
    },
    {
      "name": "Gentlemander",
      "rarity": "C",
      "cardType": "Monster",
      "monsterType": [
        "Effect"
      ]
    },
    {
      "name": "Fencing Fire Ferret",
      "rarity": "R",
      "cardType": "Monster",
      "monsterType": [
        "Effect"
      ]
    },
    {
      "name": "Skelesaurus",
      "rarity": "R",
      "cardType": "Monster",
      "monsterType": [
        "Effect"
      ]
    },
    {
      "name": "Knight Day Grepher",
      "rarity": "R",
      "cardType": "Monster",
      "monsterType": [
        "Effect"
      ]
    },
    {
      "name": "Gorgonic Golem",
      "rarity": "C",
      "cardType": "Monster",
      "monsterType": [
        "Effect"
      ]
    },
    {
      "name": "Ghostrick Jackfrost",
      "rarity": "C",
      "cardType": "Monster",
      "monsterType": [
        "Effect"
      ]
    },
    {
      "name": "Black Brachios",
      "rarity": "R",
      "cardType": "Monster",
      "monsterType": [
        "Effect"
      ]
    },
    {
      "name": "Tackle Crusader",
      "rarity": "C",
      "cardType": "Monster",
      "monsterType": [
        "Effect"
      ]
    },
    {
      "name": "Stegocyber",
      "rarity": "C",
      "cardType": "Monster",
      "monsterType": [
        "Effect"
      ]
    },
    {
      "name": "Master Craftsman Gamil‎‎",
      "rarity": "C",
      "cardType": "Monster",
      "monsterType": [
        "Effect"
      ]
    },
    {
      "name": "Swords of Revealing Light",
      "rarity": "C",
      "cardType": "Spell"
    },
    {
      "name": "Rush Recklessly",
      "rarity": "C",
      "cardType": "Spell"
    },
    {
      "name": "7 Completed",
      "rarity": "C",
      "cardType": "Spell"
    },
    {
      "name": "Premature Burial",
      "rarity": "C",
      "cardType": "Spell"
    },
    {
      "name": "Mask of Brutality",
      "rarity": "C",
      "cardType": "Spell"
    },
    {
      "name": "Offerings to the Doomed",
      "rarity": "C",
      "cardType": "Spell"
    },
    {
      "name": "Scapegoat",
      "rarity": "C",
      "cardType": "Spell"
    },
    {
      "name": "The Warrior Returning Alive",
      "rarity": "C",
      "cardType": "Spell"
    },
    {
      "name": "Dragon's Gunfire",
      "rarity": "C",
      "cardType": "Spell"
    },
    {
      "name": "Stamping Destruction",
      "rarity": "C",
      "cardType": "Spell"
    },
    {
      "name": "Fusion Sword Murasame Blade",
      "rarity": "C",
      "cardType": "Spell"
    },
    {
      "name": "Creature Swap",
      "rarity": "C",
      "cardType": "Spell"
    },
    {
      "name": "Book of Life",
      "rarity": "C",
      "cardType": "Spell"
    },
    {
      "name": "Call of the Mummy",
      "rarity": "C",
      "cardType": "Spell"
    },
    {
      "name": "Banner of Courage",
      "rarity": "C",
      "cardType": "Spell"
    },
    {
      "name": "Cestus of Dagla",
      "rarity": "C",
      "cardType": "Spell"
    },
    {
      "name": "Enemy Controller",
      "rarity": "C",
      "cardType": "Spell"
    },
    {
      "name": "Earthquake",
      "rarity": "C",
      "cardType": "Spell"
    },
    {
      "name": "Swords of Concealing Light",
      "rarity": "C",
      "cardType": "Spell"
    },
    {
      "name": "Magicians Unite",
      "rarity": "C",
      "cardType": "Spell"
    },
    {
      "name": "Ribbon of Rebirth",
      "rarity": "C",
      "cardType": "Spell"
    },
    {
      "name": "Valhalla, Hall of the Fallen",
      "rarity": "C",
      "cardType": "Spell"
    },
    {
      "name": "Fighting Spirit",
      "rarity": "C",
      "cardType": "Spell"
    },
    {
      "name": "Psi-Station",
      "rarity": "C",
      "cardType": "Spell"
    },
    {
      "name": "Unstable Evolution",
      "rarity": "C",
      "cardType": "Spell"
    },
    {
      "name": "Recycling Batteries",
      "rarity": "C",
      "cardType": "Spell"
    },
    {
      "name": "Book of Eclipse",
      "rarity": "C",
      "cardType": "Spell"
    },
    {
      "name": "Mark of the Rose",
      "rarity": "C",
      "cardType": "Spell"
    },
    {
      "name": "Psychokinesis",
      "rarity": "C",
      "cardType": "Spell"
    },
    {
      "name": "Miracle Fertilizer",
      "rarity": "C",
      "cardType": "Spell"
    },
    {
      "name": "Psychic Sword",
      "rarity": "C",
      "cardType": "Spell"
    },
    {
      "name": "Forbidden Chalice",
      "rarity": "C",
      "cardType": "Spell"
    },
    {
      "name": "Raging Mad Plants",
      "rarity": "C",
      "cardType": "Spell"
    },
    {
      "name": "Reptilianne Rage",
      "rarity": "C",
      "cardType": "Spell"
    },
    {
      "name": "Machine Assembly Line",
      "rarity": "C",
      "cardType": "Spell"
    },
    {
      "name": "Pyramid of Wonders",
      "rarity": "C",
      "cardType": "Spell"
    },
    {
      "name": "Cursed Armaments",
      "rarity": "C",
      "cardType": "Spell"
    },
    {
      "name": "Wattjustment",
      "rarity": "C",
      "cardType": "Spell"
    },
    {
      "name": "Closed Forest",
      "rarity": "C",
      "cardType": "Spell"
    },
    {
      "name": "Forbidden Lance",
      "rarity": "C",
      "cardType": "Spell"
    },
    {
      "name": "Wonder Wand",
      "rarity": "C",
      "cardType": "Spell"
    },
    {
      "name": "Murmur of the Forest",
      "rarity": "C",
      "cardType": "Spell"
    },
    {
      "name": "Bound Wand",
      "rarity": "C",
      "cardType": "Spell"
    },
    {
      "name": "Night Beam",
      "rarity": "C",
      "cardType": "Spell"
    },
    {
      "name": "Spellbook of Wisdom",
      "rarity": "C",
      "cardType": "Spell"
    },
    {
      "name": "Call of the Atlanteans",
      "rarity": "C",
      "cardType": "Spell"
    },
    {
      "name": "One-Shot Wand",
      "rarity": "C",
      "cardType": "Spell"
    },
    {
      "name": "Forbidden Dress",
      "rarity": "C",
      "cardType": "Spell"
    },
    {
      "name": "Noble Arms - Arfeudutyr",
      "rarity": "C",
      "cardType": "Spell"
    },
    {
      "name": "Noble Arms - Caliburn",
      "rarity": "C",
      "cardType": "Spell"
    },
    {
      "name": "Ayers Rock Sunrise",
      "rarity": "C",
      "cardType": "Spell"
    },
    {
      "name": "Forbidden Scripture",
      "rarity": "C",
      "cardType": "Spell"
    },
    {
      "name": "Card Advance",
      "rarity": "C",
      "cardType": "Spell"
    },
    {
      "name": "Bashing Shield",
      "rarity": "C",
      "cardType": "Spell"
    },
    {
      "name": "Call of the Haunted",
      "rarity": "C",
      "cardType": "Trap"
    },
    {
      "name": "Mirror Wall",
      "rarity": "C",
      "cardType": "Trap"
    },
    {
      "name": "Metalmorph",
      "rarity": "C",
      "cardType": "Trap"
    },
    {
      "name": "Mask of Weakness",
      "rarity": "C",
      "cardType": "Trap"
    },
    {
      "name": "Bark of Dark Ruler",
      "rarity": "C",
      "cardType": "Trap"
    },
    {
      "name": "Ready for Intercepting",
      "rarity": "C",
      "cardType": "Trap"
    },
    {
      "name": "Burst Breath",
      "rarity": "C",
      "cardType": "Trap"
    },
    {
      "name": "Blast with Chain",
      "rarity": "C",
      "cardType": "Trap"
    },
    {
      "name": "Tutan Mask",
      "rarity": "C",
      "cardType": "Trap"
    },
    {
      "name": "Windstorm of Etaqua",
      "rarity": "C",
      "cardType": "Trap"
    },
    {
      "name": "Zero Gravity",
      "rarity": "C",
      "cardType": "Trap"
    },
    {
      "name": "Shadow Spell",
      "rarity": "C",
      "cardType": "Trap"
    },
    {
      "name": "Curse of Anubis",
      "rarity": "C",
      "cardType": "Trap"
    },
    {
      "name": "Rare Metalmorph",
      "rarity": "C",
      "cardType": "Trap"
    },
    {
      "name": "Magical Arm Shield",
      "rarity": "C",
      "cardType": "Trap"
    },
    {
      "name": "Dark Bribe",
      "rarity": "C",
      "cardType": "Trap"
    },
    {
      "name": "Chaos Burst",
      "rarity": "C",
      "cardType": "Trap"
    },
    {
      "name": "No Entry!!",
      "rarity": "C",
      "cardType": "Trap"
    },
    {
      "name": "Hate Buster",
      "rarity": "C",
      "cardType": "Trap"
    },
    {
      "name": "Miniaturize",
      "rarity": "C",
      "cardType": "Trap"
    },
    {
      "name": "Psychic Overload",
      "rarity": "C",
      "cardType": "Trap"
    },
    {
      "name": "Telepathic Power",
      "rarity": "C",
      "cardType": "Trap"
    },
    {
      "name": "Mind Over Matter",
      "rarity": "C",
      "cardType": "Trap"
    },
    {
      "name": "Kunai with Chain",
      "rarity": "C",
      "cardType": "Trap"
    },
    {
      "name": "Pollinosis",
      "rarity": "C",
      "cardType": "Trap"
    },
    {
      "name": "Plant Food Chain",
      "rarity": "C",
      "cardType": "Trap"
    },
    {
      "name": "Miracle Locus",
      "rarity": "C",
      "cardType": "Trap"
    },
    {
      "name": "Skill Successor",
      "rarity": "C",
      "cardType": "Trap"
    },
    {
      "name": "Alien Brain",
      "rarity": "C",
      "cardType": "Trap"
    },
    {
      "name": "Forgotten Temple of the Deep",
      "rarity": "C",
      "cardType": "Trap"
    },
    {
      "name": "Psi-Curse",
      "rarity": "C",
      "cardType": "Trap"
    },
    {
      "name": "Damage Gate",
      "rarity": "C",
      "cardType": "Trap"
    },
    {
      "name": "Super Rush Recklessly",
      "rarity": "C",
      "cardType": "Trap"
    },
    {
      "name": "Miracle's Wake",
      "rarity": "C",
      "cardType": "Trap"
    },
    {
      "name": "Nordic Relic Laevateinn",
      "rarity": "C",
      "cardType": "Trap"
    },
    {
      "name": "Psychic Reactor",
      "rarity": "C",
      "cardType": "Trap"
    },
    {
      "name": "Poseidon Wave",
      "rarity": "C",
      "cardType": "Trap"
    },
    {
      "name": "Raigeki Bottle",
      "rarity": "C",
      "cardType": "Trap"
    },
    {
      "name": "Butterflyoke",
      "rarity": "C",
      "cardType": "Trap"
    },
    {
      "name": "Dimension Gate",
      "rarity": "C",
      "cardType": "Trap"
    },
    {
      "name": "Breakthrough Skill",
      "rarity": "C",
      "cardType": "Trap"
    },
    {
      "name": "Pinpoint Guard",
      "rarity": "C",
      "cardType": "Trap"
    },
    {
      "name": "Memory Loss",
      "rarity": "C",
      "cardType": "Trap"
    },
    {
      "name": "Butterspy Protection",
      "rarity": "C",
      "cardType": "Trap"
    },
    {
      "name": "Intrigue Shield",
      "rarity": "C",
      "cardType": "Trap"
    },
    {
      "name": "Inspiration",
      "rarity": "C",
      "cardType": "Trap"
    },
    {
      "name": "Ghosts From the Past",
      "rarity": "C",
      "cardType": "Trap"
    },
    {
      "name": "Unbreakable Spirit",
      "rarity": "C",
      "cardType": "Trap"
    },
    {
      "name": "Typhoon",
      "rarity": "C",
      "cardType": "Trap"
    },
    {
      "name": "Swamp Mirrorer",
      "rarity": "C",
      "cardType": "Trap"
    },
    {
      "name": "Quantum Cat",
      "rarity": "C",
      "cardType": "Trap"
    },
    {
      "name": "Grenosaurus",
      "rarity": "SHR",
      "cardType": "Monster",
      "monsterType": [
        "Xyz"
      ]
    },
    {
      "name": "Leviair the Sea Dragon",
      "rarity": "SHR",
      "cardType": "Monster",
      "monsterType": [
        "Xyz"
      ]
    },
    {
      "name": "Number 10: Illumiknight",
      "rarity": "SHR",
      "cardType": "Monster",
      "monsterType": [
        "Xyz"
      ]
    },
    {
      "name": "Number 20: Giga-Brilliant",
      "rarity": "SHR",
      "cardType": "Monster",
      "monsterType": [
        "Xyz"
      ]
    },
    {
      "name": "Lavalval Ignis",
      "rarity": "SHR",
      "cardType": "Monster",
      "monsterType": [
        "Xyz"
      ]
    },
    {
      "name": "Evigishki Merrowgeist",
      "rarity": "SHR",
      "cardType": "Monster",
      "monsterType": [
        "Xyz"
      ]
    },
    {
      "name": "Daigusto Emeral",
      "rarity": "SHR",
      "cardType": "Monster",
      "monsterType": [
        "Xyz"
      ]
    },
    {
      "name": "Gagaga Cowboy",
      "rarity": "SHR",
      "cardType": "Monster",
      "monsterType": [
        "Xyz"
      ]
    },
    {
      "name": "Heroic Champion - Gandiva",
      "rarity": "SHR",
      "cardType": "Monster",
      "monsterType": [
        "Xyz"
      ]
    },
    {
      "name": "Heroic Champion - Kusanagi",
      "rarity": "SHR",
      "cardType": "Monster",
      "monsterType": [
        "Xyz"
      ]
    },
    {
      "name": "Giant Soldier of Steel",
      "rarity": "SHR",
      "cardType": "Monster",
      "monsterType": [
        "Xyz"
      ]
    },
    {
      "name": "Diamond Dire Wolf",
      "rarity": "SHR",
      "cardType": "Monster",
      "monsterType": [
        "Xyz"
      ]
    },
    {
      "name": "Tin Archduke",
      "rarity": "SHR",
      "cardType": "Monster",
      "monsterType": [
        "Xyz"
      ]
    },
    {
      "name": "Fairy Cheer Girl",
      "rarity": "SHR",
      "cardType": "Monster",
      "monsterType": [
        "Xyz"
      ]
    },
    {
      "name": "Number 44: Sky Pegasus",
      "rarity": "SHR",
      "cardType": "Monster",
      "monsterType": [
        "Xyz"
      ]
    },
    {
      "name": "Ghostrick Alucard",
      "rarity": "SHR",
      "cardType": "Monster",
      "monsterType": [
        "Xyz"
      ]
    },
    {
      "name": "Tri-Edge Levia",
      "rarity": "SHR",
      "cardType": "Monster",
      "monsterType": [
        "Xyz"
      ]
    }
  ]
}