{
  "name": "Crossed Souls",
  "shortName": "cros",
  "list": [
    {
      "name": "Sea Dragoons of Draconia",
      "rarity": "R",
      "cardType": "Monster",
      "monsterType": [
        "Normal",
        "Pendulum"
      ]
    },
    {
      "name": "Phantom Gryphon",
      "rarity": "SP",
      "cardType": "Monster",
      "monsterType": [
        "Normal"
      ]
    },
    {
      "name": "Performapal Elephammer",
      "rarity": "R",
      "cardType": "Monster",
      "monsterType": [
        "Effect"
      ]
    },
    {
      "name": "Performapal Bowhopper",
      "rarity": "C",
      "cardType": "Monster",
      "monsterType": [
        "Effect"
      ]
    },
    {
      "name": "Performapal Lizardraw",
      "rarity": "C",
      "cardType": "Monster",
      "monsterType": [
        "Effect",
        "Pendulum"
      ]
    },
    {
      "name": "Performapal Springoose",
      "rarity": "C",
      "cardType": "Monster",
      "monsterType": [
        "Effect"
      ]
    },
    {
      "name": "Superheavy Samurai Big Waraji",
      "rarity": "C",
      "cardType": "Monster",
      "monsterType": [
        "Effect"
      ]
    },
    {
      "name": "Superheavy Samurai Gigagloves",
      "rarity": "C",
      "cardType": "Monster",
      "monsterType": [
        "Effect"
      ]
    },
    {
      "name": "Superheavy Samurai Battleball",
      "rarity": "SR",
      "cardType": "Monster",
      "monsterType": [
        "Effect"
      ]
    },
    {
      "name": "Superheavy Samurai Soulbuster Gauntlet",
      "rarity": "C",
      "cardType": "Monster",
      "monsterType": [
        "Effect"
      ]
    },
    {
      "name": "Soprano the Melodious Songstress",
      "rarity": "C",
      "cardType": "Monster",
      "monsterType": [
        "Effect"
      ]
    },
    {
      "name": "Fluffal Sheep",
      "rarity": "C",
      "cardType": "Monster",
      "monsterType": [
        "Effect"
      ]
    },
    {
      "name": "Edge Imp Saw",
      "rarity": "C",
      "cardType": "Monster",
      "monsterType": [
        "Effect"
      ]
    },
    {
      "name": "Edge Imp Chain",
      "rarity": "C",
      "cardType": "Monster",
      "monsterType": [
        "Effect"
      ]
    },
    {
      "name": "Edge Imp Tomahawk",
      "rarity": "R",
      "cardType": "Monster",
      "monsterType": [
        "Effect"
      ]
    },
    {
      "name": "Edge Imp Frightfuloid",
      "rarity": "C",
      "cardType": "Monster",
      "monsterType": [
        "Effect"
      ]
    },
    {
      "name": "Raidraptor - Sharp Lanius",
      "rarity": "C",
      "cardType": "Monster",
      "monsterType": [
        "Effect"
      ]
    },
    {
      "name": "Raidraptor - Mimicry Lanius",
      "rarity": "C",
      "cardType": "Monster",
      "monsterType": [
        "Effect"
      ]
    },
    {
      "name": "Yosenju Kodam",
      "rarity": "C",
      "cardType": "Monster",
      "monsterType": [
        "Effect"
      ]
    },
    {
      "name": "Yosenju Oyam",
      "rarity": "R",
      "cardType": "Monster",
      "monsterType": [
        "Effect"
      ]
    },
    {
      "name": "Satellarknight Zefrathuban",
      "rarity": "UR",
      "cardType": "Monster",
      "monsterType": [
        "Effect",
        "Pendulum"
      ]
    },
    {
      "name": "Stellarknight Zefraxciton",
      "rarity": "R",
      "cardType": "Monster",
      "monsterType": [
        "Effect",
        "Pendulum"
      ]
    },
    {
      "name": "Shaddoll Zefranaga",
      "rarity": "C",
      "cardType": "Monster",
      "monsterType": [
        "Effect",
        "Pendulum"
      ]
    },
    {
      "name": "Shaddoll Zefracore",
      "rarity": "C",
      "cardType": "Monster",
      "monsterType": [
        "Effect",
        "Pendulum"
      ]
    },
    {
      "name": "Zefraxi, Treasure of the Yang Zing",
      "rarity": "UR",
      "cardType": "Monster",
      "monsterType": [
        "Effect",
        "Pendulum"
      ]
    },
    {
      "name": "Zefraniu, Secret of the Yang Zing",
      "rarity": "R",
      "cardType": "Monster",
      "monsterType": [
        "Effect",
        "Pendulum"
      ]
    },
    {
      "name": "Zefrasaber, Swordmaster of the Nekroz",
      "rarity": "C",
      "cardType": "Monster",
      "monsterType": [
        "Effect",
        "Pendulum"
      ]
    },
    {
      "name": "Zefraxa, Flame Beast of the Nekroz",
      "rarity": "C",
      "cardType": "Monster",
      "monsterType": [
        "Effect",
        "Pendulum"
      ]
    },
    {
      "name": "Ritual Beast Tamer Zeframpilica",
      "rarity": "C",
      "cardType": "Monster",
      "monsterType": [
        "Effect",
        "Pendulum"
      ]
    },
    {
      "name": "Ritual Beast Tamer Zefrawendi",
      "rarity": "R",
      "cardType": "Monster",
      "monsterType": [
        "Effect",
        "Pendulum"
      ]
    },
    {
      "name": "Infernoid Pirmais",
      "rarity": "UR",
      "cardType": "Monster",
      "monsterType": [
        "Effect"
      ]
    },
    {
      "name": "Infernoid Sjette",
      "rarity": "C",
      "cardType": "Monster",
      "monsterType": [
        "Effect"
      ]
    },
    {
      "name": "Infernoid Devyaty",
      "rarity": "UR",
      "cardType": "Monster",
      "monsterType": [
        "Effect"
      ]
    },
    {
      "name": "Ghost Ogre & Snow Rabbit",
      "rarity": "SCR",
      "cardType": "Monster",
      "monsterType": [
        "Effect"
      ]
    },
    {
      "name": "Magma Dragon",
      "rarity": "C",
      "cardType": "Monster",
      "monsterType": [
        "Effect"
      ]
    },
    {
      "name": "Deskbot 004",
      "rarity": "C",
      "cardType": "Monster",
      "monsterType": [
        "Effect"
      ]
    },
    {
      "name": "Doomdog Octhros",
      "rarity": "C",
      "cardType": "Monster",
      "monsterType": [
        "Effect"
      ]
    },
    {
      "name": "Putrid Pudding Body Buddies",
      "rarity": "SP",
      "cardType": "Monster",
      "monsterType": [
        "Effect"
      ]
    },
    {
      "name": "Nekroz of Sophia",
      "rarity": "SCR",
      "cardType": "Monster",
      "monsterType": [
        "Ritual"
      ]
    },
    {
      "name": "Schuberta the Melodious Maestra",
      "rarity": "R",
      "cardType": "Monster",
      "monsterType": [
        "Fusion"
      ]
    },
    {
      "name": "Bloom Diva the Melodious Choir",
      "rarity": "UR",
      "cardType": "Monster",
      "monsterType": [
        "Fusion"
      ]
    },
    {
      "name": "Frightfur Leo",
      "rarity": "SR",
      "cardType": "Monster",
      "monsterType": [
        "Fusion"
      ]
    },
    {
      "name": "Frightfur Sheep",
      "rarity": "SR",
      "cardType": "Monster",
      "monsterType": [
        "Fusion"
      ]
    },
    {
      "name": "Frightfur Chimera",
      "rarity": "R",
      "cardType": "Monster",
      "monsterType": [
        "Fusion"
      ]
    },
    {
      "name": "El Shaddoll Anoyatyllis",
      "rarity": "SCR",
      "cardType": "Monster",
      "monsterType": [
        "Fusion"
      ]
    },
    {
      "name": "Ritual Beast Ulti-Gaiapelio",
      "rarity": "UR",
      "cardType": "Monster",
      "monsterType": [
        "Fusion"
      ]
    },
    {
      "name": "Clear Wing Synchro Dragon",
      "rarity": "SCR",
      "cardType": "Monster",
      "monsterType": [
        "Synchro"
      ]
    },
    {
      "name": "Chaofeng, Phantom of the Yang Zing",
      "rarity": "SR",
      "cardType": "Monster",
      "monsterType": [
        "Synchro"
      ]
    },
    {
      "name": "Raidraptor - Blaze Falcon",
      "rarity": "R",
      "cardType": "Monster",
      "monsterType": [
        "Xyz"
      ]
    },
    {
      "name": "Raidraptor - Revolution Falcon",
      "rarity": "R",
      "cardType": "Monster",
      "monsterType": [
        "Xyz"
      ]
    },
    {
      "name": "Tellarknight Ptolemaeus",
      "rarity": "UR",
      "cardType": "Monster",
      "monsterType": [
        "Xyz"
      ]
    },
    {
      "name": "Madolche Puddingcess Chocolat-a-la-Mode",
      "rarity": "UR",
      "cardType": "Monster",
      "monsterType": [
        "Xyz"
      ]
    },
    {
      "name": "Performapal Recasting",
      "rarity": "C",
      "cardType": "Spell"
    },
    {
      "name": "Fusion Conscription",
      "rarity": "R",
      "cardType": "Spell"
    },
    {
      "name": "Frightfur Factory",
      "rarity": "C",
      "cardType": "Spell"
    },
    {
      "name": "Suture Rebirth",
      "rarity": "R",
      "cardType": "Spell"
    },
    {
      "name": "Frightfur Fusion",
      "rarity": "R",
      "cardType": "Spell"
    },
    {
      "name": "Rank-Up-Magic Revolution Force",
      "rarity": "R",
      "cardType": "Spell"
    },
    {
      "name": "Yosen Whirlwind",
      "rarity": "C",
      "cardType": "Spell"
    },
    {
      "name": "Zefra Path",
      "rarity": "C",
      "cardType": "Spell"
    },
    {
      "name": "Oracle of Zefra",
      "rarity": "SCR",
      "cardType": "Spell"
    },
    {
      "name": "Void Vanishment",
      "rarity": "SR",
      "cardType": "Spell"
    },
    {
      "name": "Galaxy Cyclone",
      "rarity": "SCR",
      "cardType": "Spell"
    },
    {
      "name": "Harmonic Oscillation",
      "rarity": "SP",
      "cardType": "Spell"
    },
    {
      "name": "Pendulum Rising",
      "rarity": "C",
      "cardType": "Spell"
    },
    {
      "name": "Unexpected Dai",
      "rarity": "SR",
      "cardType": "Spell"
    },
    {
      "name": "Performapal Pinch Helper",
      "rarity": "C",
      "cardType": "Trap"
    },
    {
      "name": "Melodious Illusion",
      "rarity": "R",
      "cardType": "Trap"
    },
    {
      "name": "Fluffal Crane",
      "rarity": "C",
      "cardType": "Trap"
    },
    {
      "name": "Designer Frightfur",
      "rarity": "C",
      "cardType": "Trap"
    },
    {
      "name": "Dizzying Winds of Yosen Village",
      "rarity": "C",
      "cardType": "Trap"
    },
    {
      "name": "Chosen of Zefra",
      "rarity": "C",
      "cardType": "Trap"
    },
    {
      "name": "Zefra Divine Strike",
      "rarity": "SR",
      "cardType": "Trap"
    },
    {
      "name": "Void Purification",
      "rarity": "R",
      "cardType": "Trap"
    },
    {
      "name": "Jar of Avarice",
      "rarity": "SCR",
      "cardType": "Trap"
    },
    {
      "name": "Lose 1 Turn",
      "rarity": "UR",
      "cardType": "Trap"
    },
    {
      "name": "Fiend Griefing",
      "rarity": "C",
      "cardType": "Trap"
    },
    {
      "name": "Abyss Stungray",
      "rarity": "C",
      "cardType": "Trap"
    },
    {
      "name": "Statue of Anguish Pattern",
      "rarity": "C",
      "cardType": "Trap"
    },
    {
      "name": "Monster Rebone",
      "rarity": "SR",
      "cardType": "Trap"
    },
    {
      "name": "Diceversity",
      "rarity": "SP",
      "cardType": "Trap"
    },
    {
      "name": "Moon Mirror Shield",
      "rarity": "R",
      "cardType": "Spell"
    },
    {
      "name": "Draghig, Malebranche of the Burning Abyss",
      "rarity": "SR",
      "cardType": "Monster",
      "monsterType": [
        "Effect"
      ]
    },
    {
      "name": "Barbar, Malebranche of the Burning Abyss",
      "rarity": "R",
      "cardType": "Monster",
      "monsterType": [
        "Effect"
      ]
    },
    {
      "name": "Dante, Pilgrim of the Burning Abyss",
      "rarity": "SCR",
      "cardType": "Monster",
      "monsterType": [
        "Fusion"
      ]
    },
    {
      "name": "The Terminus of the Burning Abyss",
      "rarity": "UR",
      "cardType": "Spell"
    },
    {
      "name": "U.A. Dreadnought Dunker",
      "rarity": "C",
      "cardType": "Monster",
      "monsterType": [
        "Effect"
      ]
    },
    {
      "name": "U.A. Rival Rebounder",
      "rarity": "C",
      "cardType": "Monster",
      "monsterType": [
        "Effect"
      ]
    },
    {
      "name": "U.A. Signing Deal",
      "rarity": "C",
      "cardType": "Spell"
    },
    {
      "name": "U.A. Penalty Box",
      "rarity": "C",
      "cardType": "Trap"
    },
    {
      "name": "Half Unbreak",
      "rarity": "C",
      "cardType": "Trap"
    },
    {
      "name": "The Melody of Awakening Dragon",
      "rarity": "SR",
      "cardType": "Spell"
    },
    {
      "name": "Cybernetic Fusion Support",
      "rarity": "C",
      "cardType": "Spell"
    },
    {
      "name": "Powerful Rebirth",
      "rarity": "SR",
      "cardType": "Trap"
    },
    {
      "name": "Number S39: Utopia Prime",
      "rarity": "SR",
      "cardType": "Monster",
      "monsterType": [
        "Xyz"
      ]
    },
    {
      "name": "Galaxy-Eyes Full Armor Photon Dragon",
      "rarity": "SR",
      "cardType": "Monster",
      "monsterType": [
        "Xyz"
      ]
    },
    {
      "name": "Performapal Thunderhino",
      "rarity": "C",
      "cardType": "Monster",
      "monsterType": [
        "Effect"
      ]
    },
    {
      "name": "Primitive Butterfly",
      "rarity": "C",
      "cardType": "Monster",
      "monsterType": [
        "Effect"
      ]
    },
    {
      "name": "Junk Anchor",
      "rarity": "R",
      "cardType": "Monster",
      "monsterType": [
        "Effect"
      ]
    },
    {
      "name": "Harpie Harpist",
      "rarity": "SR",
      "cardType": "Monster",
      "monsterType": [
        "Effect"
      ]
    }
  ]
}