{
  "name": "Duelist Alliance",
  "shortName": "duea",
  "list": [
    {
      "name": "Dragon Horn Hunter",
      "rarity": "SR",
      "cardType": "Monster",
      "monsterType": [
        "Normal",
        "Pendulum"
      ]
    },
    {
      "name": "Flash Knight",
      "rarity": "R",
      "cardType": "Monster",
      "monsterType": [
        "Normal",
        "Pendulum"
      ]
    },
    {
      "name": "Foucault's Cannon",
      "rarity": "SR",
      "cardType": "Monster",
      "monsterType": [
        "Normal",
        "Pendulum"
      ]
    },
    {
      "name": "Metaphys Armed Dragon",
      "rarity": "C",
      "cardType": "Monster",
      "monsterType": [
        "Normal"
      ]
    },
    {
      "name": "Odd-Eyes Pendulum Dragon",
      "rarity": "SCR",
      "cardType": "Monster",
      "monsterType": [
        "Effect",
        "Pendulum"
      ]
    },
    {
      "name": "Performapal Skeeter Skimmer",
      "rarity": "C",
      "cardType": "Monster",
      "monsterType": [
        "Effect"
      ]
    },
    {
      "name": "Performapal Whip Snake",
      "rarity": "R",
      "cardType": "Monster",
      "monsterType": [
        "Effect"
      ]
    },
    {
      "name": "Performapal Sword Fish",
      "rarity": "C",
      "cardType": "Monster",
      "monsterType": [
        "Effect"
      ]
    },
    {
      "name": "Performapal Hip Hippo",
      "rarity": "C",
      "cardType": "Monster",
      "monsterType": [
        "Effect"
      ]
    },
    {
      "name": "Performapal Kaleidoscorp",
      "rarity": "R",
      "cardType": "Monster",
      "monsterType": [
        "Effect",
        "Pendulum"
      ]
    },
    {
      "name": "Performapal Turn Toad",
      "rarity": "R",
      "cardType": "Monster",
      "monsterType": [
        "Effect",
        "Pendulum"
      ]
    },
    {
      "name": "Superheavy Samurai Blue Brawler",
      "rarity": "C",
      "cardType": "Monster",
      "monsterType": [
        "Effect"
      ]
    },
    {
      "name": "Superheavy Samurai Swordsman",
      "rarity": "C",
      "cardType": "Monster",
      "monsterType": [
        "Effect"
      ]
    },
    {
      "name": "Superheavy Samurai Big Benkei",
      "rarity": "R",
      "cardType": "Monster",
      "monsterType": [
        "Effect"
      ]
    },
    {
      "name": "Aria the Melodious Diva",
      "rarity": "C",
      "cardType": "Monster",
      "monsterType": [
        "Effect"
      ]
    },
    {
      "name": "Sonata the Melodious Diva",
      "rarity": "C",
      "cardType": "Monster",
      "monsterType": [
        "Effect"
      ]
    },
    {
      "name": "Mozarta the Melodious Maestra",
      "rarity": "R",
      "cardType": "Monster",
      "monsterType": [
        "Effect"
      ]
    },
    {
      "name": "Battleguard King",
      "rarity": "C",
      "cardType": "Monster",
      "monsterType": [
        "Effect"
      ]
    },
    {
      "name": "Satellarknight Deneb",
      "rarity": "UR",
      "cardType": "Monster",
      "monsterType": [
        "Effect"
      ]
    },
    {
      "name": "Satellarknight Altair",
      "rarity": "R",
      "cardType": "Monster",
      "monsterType": [
        "Effect"
      ]
    },
    {
      "name": "Satellarknight Vega",
      "rarity": "C",
      "cardType": "Monster",
      "monsterType": [
        "Effect"
      ]
    },
    {
      "name": "Satellarknight Alsahm",
      "rarity": "SR",
      "cardType": "Monster",
      "monsterType": [
        "Effect"
      ]
    },
    {
      "name": "Satellarknight Unukalhai",
      "rarity": "C",
      "cardType": "Monster",
      "monsterType": [
        "Effect"
      ]
    },
    {
      "name": "Shaddoll Falco",
      "rarity": "R",
      "cardType": "Monster",
      "monsterType": [
        "Effect"
      ]
    },
    {
      "name": "Shaddoll Hedgehog",
      "rarity": "C",
      "cardType": "Monster",
      "monsterType": [
        "Effect"
      ]
    },
    {
      "name": "Shaddoll Squamata",
      "rarity": "C",
      "cardType": "Monster",
      "monsterType": [
        "Effect"
      ]
    },
    {
      "name": "Shaddoll Dragon",
      "rarity": "R",
      "cardType": "Monster",
      "monsterType": [
        "Effect"
      ]
    },
    {
      "name": "Shaddoll Beast",
      "rarity": "R",
      "cardType": "Monster",
      "monsterType": [
        "Effect"
      ]
    },
    {
      "name": "Suanni, Fire of the Yang Zing",
      "rarity": "SR",
      "cardType": "Monster",
      "monsterType": [
        "Effect"
      ]
    },
    {
      "name": "Bi'an, Earth of the Yang Zing",
      "rarity": "SR",
      "cardType": "Monster",
      "monsterType": [
        "Effect"
      ]
    },
    {
      "name": "Bixi, Water of the Yang Zing",
      "rarity": "SR",
      "cardType": "Monster",
      "monsterType": [
        "Effect"
      ]
    },
    {
      "name": "Pulao, Wind of the Yang Zing",
      "rarity": "SR",
      "cardType": "Monster",
      "monsterType": [
        "Effect"
      ]
    },
    {
      "name": "Chiwen, Light of the Yang Zing",
      "rarity": "UR",
      "cardType": "Monster",
      "monsterType": [
        "Effect"
      ]
    },
    {
      "name": "Artifact Chakram",
      "rarity": "C",
      "cardType": "Monster",
      "monsterType": [
        "Effect"
      ]
    },
    {
      "name": "Artifact Lancea",
      "rarity": "C",
      "cardType": "Monster",
      "monsterType": [
        "Effect"
      ]
    },
    {
      "name": "Nefarious Archfiend Eater of Nefariousness",
      "rarity": "C",
      "cardType": "Monster",
      "monsterType": [
        "Effect"
      ]
    },
    {
      "name": "The Agent of Entropy - Uranus",
      "rarity": "C",
      "cardType": "Monster",
      "monsterType": [
        "Effect"
      ]
    },
    {
      "name": "Djinn Demolisher of Rituals",
      "rarity": "C",
      "cardType": "Monster",
      "monsterType": [
        "Effect"
      ]
    },
    {
      "name": "Batteryman 9-Volt",
      "rarity": "C",
      "cardType": "Monster",
      "monsterType": [
        "Effect"
      ]
    },
    {
      "name": "Resonance Insect",
      "rarity": "C",
      "cardType": "Monster",
      "monsterType": [
        "Effect"
      ]
    },
    {
      "name": "Breaker the Dark Magical Warrior",
      "rarity": "R",
      "cardType": "Monster",
      "monsterType": [
        "Effect"
      ]
    },
    {
      "name": "Raiza the Mega Monarch",
      "rarity": "SCR",
      "cardType": "Monster",
      "monsterType": [
        "Effect"
      ]
    },
    {
      "name": "Dogu",
      "rarity": "R",
      "cardType": "Monster",
      "monsterType": [
        "Effect"
      ]
    },
    {
      "name": "Hypnosister",
      "rarity": "SR",
      "cardType": "Monster",
      "monsterType": [
        "Effect"
      ]
    },
    {
      "name": "Re-Cover",
      "rarity": "C",
      "cardType": "Monster",
      "monsterType": [
        "Effect"
      ]
    },
    {
      "name": "Deskbot 001",
      "rarity": "C",
      "cardType": "Monster",
      "monsterType": [
        "Effect"
      ]
    },
    {
      "name": "Spy-C-Spy",
      "rarity": "SP",
      "cardType": "Monster",
      "monsterType": [
        "Effect"
      ]
    },
    {
      "name": "Wightprince",
      "rarity": "SP",
      "cardType": "Monster",
      "monsterType": [
        "Effect"
      ]
    },
    {
      "name": "El Shaddoll Winda",
      "rarity": "UR",
      "cardType": "Monster",
      "monsterType": [
        "Fusion"
      ]
    },
    {
      "name": "El Shaddoll Construct",
      "rarity": "UR",
      "cardType": "Monster",
      "monsterType": [
        "Fusion"
      ]
    },
    {
      "name": "Saffira, Queen of Dragons",
      "rarity": "UR",
      "cardType": "Monster",
      "monsterType": [
        "Ritual"
      ]
    },
    {
      "name": "Baxia, Brightness of the Yang Zing",
      "rarity": "SCR",
      "cardType": "Monster",
      "monsterType": [
        "Synchro"
      ]
    },
    {
      "name": "Samsara, Dragon of Rebirth",
      "rarity": "SR",
      "cardType": "Monster",
      "monsterType": [
        "Synchro"
      ]
    },
    {
      "name": "Stellarknight Delteros",
      "rarity": "SCR",
      "cardType": "Monster",
      "monsterType": [
        "Xyz"
      ]
    },
    {
      "name": "Castel, the Skyblaster Musketeer",
      "rarity": "SR",
      "cardType": "Monster",
      "monsterType": [
        "Xyz"
      ]
    },
    {
      "name": "Hippo Carnival",
      "rarity": "C",
      "cardType": "Spell"
    },
    {
      "name": "Feast of the Wild LV5",
      "rarity": "C",
      "cardType": "Spell"
    },
    {
      "name": "Stellarknight Alpha",
      "rarity": "C",
      "cardType": "Spell"
    },
    {
      "name": "Satellarknight Skybridge",
      "rarity": "R",
      "cardType": "Spell"
    },
    {
      "name": "Shaddoll Fusion",
      "rarity": "SR",
      "cardType": "Spell"
    },
    {
      "name": "Curse of the Shadow Prison",
      "rarity": "C",
      "cardType": "Spell"
    },
    {
      "name": "Yang Zing Path",
      "rarity": "SCR",
      "cardType": "Spell"
    },
    {
      "name": "Yang Zing Prana",
      "rarity": "C",
      "cardType": "Spell"
    },
    {
      "name": "Hymn of Light",
      "rarity": "C",
      "cardType": "Spell"
    },
    {
      "name": "Dracocension",
      "rarity": "C",
      "cardType": "Spell"
    },
    {
      "name": "Magical Spring",
      "rarity": "SCR",
      "cardType": "Spell"
    },
    {
      "name": "The Monarchs Stormforth",
      "rarity": "C",
      "cardType": "Spell"
    },
    {
      "name": "Pop-Up",
      "rarity": "SP",
      "cardType": "Spell"
    },
    {
      "name": "Battleguard Rage",
      "rarity": "C",
      "cardType": "Trap"
    },
    {
      "name": "Battleguard Howling",
      "rarity": "C",
      "cardType": "Trap"
    },
    {
      "name": "Stellarnova Wave",
      "rarity": "C",
      "cardType": "Trap"
    },
    {
      "name": "Stellarnova Alpha",
      "rarity": "UR",
      "cardType": "Trap"
    },
    {
      "name": "Sinister Shadow Games",
      "rarity": "UR",
      "cardType": "Trap"
    },
    {
      "name": "Shaddoll Core",
      "rarity": "SR",
      "cardType": "Trap"
    },
    {
      "name": "Yang Zing Creation",
      "rarity": "UR",
      "cardType": "Trap"
    },
    {
      "name": "Yang Zing Unleashed",
      "rarity": "C",
      "cardType": "Trap"
    },
    {
      "name": "Chain Dispel",
      "rarity": "C",
      "cardType": "Trap"
    },
    {
      "name": "Face-Off",
      "rarity": "R",
      "cardType": "Trap"
    },
    {
      "name": "Pendulum Back",
      "rarity": "SR",
      "cardType": "Trap"
    },
    {
      "name": "Time-Space Trap Hole",
      "rarity": "SCR",
      "cardType": "Trap"
    },
    {
      "name": "That Six",
      "rarity": "SP",
      "cardType": "Trap"
    },
    {
      "name": "Doomstar Magician",
      "rarity": "UR",
      "cardType": "Monster",
      "monsterType": [
        "Effect"
      ]
    },
    {
      "name": "Scarm, Malebranche of the Burning Abyss",
      "rarity": "R",
      "cardType": "Monster",
      "monsterType": [
        "Effect"
      ]
    },
    {
      "name": "Graff, Malebranche of the Burning Abyss",
      "rarity": "R",
      "cardType": "Monster",
      "monsterType": [
        "Effect"
      ]
    },
    {
      "name": "Cir, Malebranche of the Burning Abyss",
      "rarity": "R",
      "cardType": "Monster",
      "monsterType": [
        "Effect"
      ]
    },
    {
      "name": "Dante, Traveler of the Burning Abyss",
      "rarity": "SCR",
      "cardType": "Monster",
      "monsterType": [
        "Xyz"
      ]
    },
    {
      "name": "The Traveler and the Burning Abyss",
      "rarity": "SR",
      "cardType": "Trap"
    },
    {
      "name": "U.A. Mighty Slugger",
      "rarity": "R",
      "cardType": "Monster",
      "monsterType": [
        "Effect"
      ]
    },
    {
      "name": "U.A. Perfect Ace",
      "rarity": "R",
      "cardType": "Monster",
      "monsterType": [
        "Effect"
      ]
    },
    {
      "name": "U.A. Stadium",
      "rarity": "C",
      "cardType": "Spell"
    },
    {
      "name": "Gaia, the Polar Knight",
      "rarity": "C",
      "cardType": "Monster",
      "monsterType": [
        "Effect"
      ]
    },
    {
      "name": "Gaia, the Mid-Knight Sun",
      "rarity": "C",
      "cardType": "Monster",
      "monsterType": [
        "Effect"
      ]
    },
    {
      "name": "Chaos Seed",
      "rarity": "C",
      "cardType": "Spell"
    },
    {
      "name": "Exchange of Night and Day",
      "rarity": "C",
      "cardType": "Trap"
    },
    {
      "name": "Number 58: Burner Visor",
      "rarity": "C",
      "cardType": "Monster",
      "monsterType": [
        "Xyz"
      ]
    },
    {
      "name": "Felis, Lightsworn Archer",
      "rarity": "UR",
      "cardType": "Monster",
      "monsterType": [
        "Effect"
      ]
    },
    {
      "name": "Fishborg Doctor",
      "rarity": "C",
      "cardType": "Monster",
      "monsterType": [
        "Effect"
      ]
    },
    {
      "name": "Panzer Dragon",
      "rarity": "R",
      "cardType": "Monster",
      "monsterType": [
        "Fusion"
      ]
    },
    {
      "name": "Cloudcastle",
      "rarity": "C",
      "cardType": "Monster",
      "monsterType": [
        "Synchro"
      ]
    },
    {
      "name": "Pilgrim Reaper",
      "rarity": "C",
      "cardType": "Monster",
      "monsterType": [
        "Xyz"
      ]
    }
  ]
}