{
  "name": "Elemental Energy",
  "shortName": "een",
  "list": [
    {
      "name": "Zure, Knight of Dark World",
      "rarity": "C",
      "cardType": "Monster",
      "monsterType": [
        "Normal"
      ]
    },
    {
      "name": "V-Tiger Jet",
      "rarity": "C",
      "cardType": "Monster",
      "monsterType": [
        "Normal"
      ]
    },
    {
      "name": "Blade Skater",
      "rarity": "C",
      "cardType": "Monster",
      "monsterType": [
        "Normal"
      ]
    },
    {
      "name": "Queen's Knight",
      "rarity": "R",
      "cardType": "Monster",
      "monsterType": [
        "Normal"
      ]
    },
    {
      "name": "Jack's Knight",
      "rarity": "R",
      "cardType": "Monster",
      "monsterType": [
        "Normal"
      ]
    },
    {
      "name": "King's Knight",
      "rarity": "R",
      "cardType": "Monster",
      "monsterType": [
        "Effect"
      ]
    },
    {
      "name": "Elemental HERO Bladedge",
      "rarity": "SR",
      "cardType": "Monster",
      "monsterType": [
        "Effect"
      ]
    },
    {
      "name": "Elemental HERO Wildheart",
      "rarity": "C",
      "cardType": "Monster",
      "monsterType": [
        "Effect"
      ]
    },
    {
      "name": "Reborn Zombie",
      "rarity": "C",
      "cardType": "Monster",
      "monsterType": [
        "Effect"
      ]
    },
    {
      "name": "Chthonian Soldier",
      "rarity": "R",
      "cardType": "Monster",
      "monsterType": [
        "Effect"
      ]
    },
    {
      "name": "W-Wing Catapult",
      "rarity": "C",
      "cardType": "Monster",
      "monsterType": [
        "Effect"
      ]
    },
    {
      "name": "Infernal Incinerator",
      "rarity": "C",
      "cardType": "Monster",
      "monsterType": [
        "Effect"
      ]
    },
    {
      "name": "Hydrogeddon",
      "rarity": "C",
      "cardType": "Monster",
      "monsterType": [
        "Effect"
      ]
    },
    {
      "name": "Oxygeddon",
      "rarity": "C",
      "cardType": "Monster",
      "monsterType": [
        "Effect"
      ]
    },
    {
      "name": "Water Dragon",
      "rarity": "SR",
      "cardType": "Monster",
      "monsterType": [
        "Effect"
      ]
    },
    {
      "name": "Etoile Cyber",
      "rarity": "C",
      "cardType": "Monster",
      "monsterType": [
        "Effect"
      ]
    },
    {
      "name": "B.E.S. Tetran",
      "rarity": "SR",
      "cardType": "Monster",
      "monsterType": [
        "Effect"
      ]
    },
    {
      "name": "Nanobreaker",
      "rarity": "C",
      "cardType": "Monster",
      "monsterType": [
        "Effect"
      ]
    },
    {
      "name": "Rapid-Fire Magician",
      "rarity": "R",
      "cardType": "Monster",
      "monsterType": [
        "Effect"
      ]
    },
    {
      "name": "Beiige, Vanguard of Dark World",
      "rarity": "C",
      "cardType": "Monster",
      "monsterType": [
        "Effect"
      ]
    },
    {
      "name": "Broww, Huntsman of Dark World",
      "rarity": "R",
      "cardType": "Monster",
      "monsterType": [
        "Effect"
      ]
    },
    {
      "name": "Brron, Mad King of Dark World",
      "rarity": "R",
      "cardType": "Monster",
      "monsterType": [
        "Effect"
      ]
    },
    {
      "name": "Sillva, Warlord of Dark World",
      "rarity": "R",
      "cardType": "Monster",
      "monsterType": [
        "Effect"
      ]
    },
    {
      "name": "Goldd, Wu-Lord of Dark World",
      "rarity": "SR",
      "cardType": "Monster",
      "monsterType": [
        "Effect"
      ]
    },
    {
      "name": "Scarr, Scout of Dark World",
      "rarity": "C",
      "cardType": "Monster",
      "monsterType": [
        "Effect"
      ]
    },
    {
      "name": "Familiar-Possessed - Aussa",
      "rarity": "C",
      "cardType": "Monster",
      "monsterType": [
        "Effect"
      ]
    },
    {
      "name": "Familiar-Possessed - Eria",
      "rarity": "C",
      "cardType": "Monster",
      "monsterType": [
        "Effect"
      ]
    },
    {
      "name": "Familiar-Possessed - Hiita",
      "rarity": "C",
      "cardType": "Monster",
      "monsterType": [
        "Effect"
      ]
    },
    {
      "name": "Familiar-Possessed - Wynn",
      "rarity": "C",
      "cardType": "Monster",
      "monsterType": [
        "Effect"
      ]
    },
    {
      "name": "VW-Tiger Catapult",
      "rarity": "C",
      "cardType": "Monster",
      "monsterType": [
        "Fusion"
      ]
    },
    {
      "name": "VWXYZ-Dragon Catapult Cannon",
      "rarity": "SR",
      "cardType": "Monster",
      "monsterType": [
        "Fusion"
      ]
    },
    {
      "name": "Cyber Blader",
      "rarity": "SR",
      "cardType": "Monster",
      "monsterType": [
        "Fusion"
      ]
    },
    {
      "name": "Elemental HERO Rampart Blaster",
      "rarity": "UR",
      "cardType": "Monster",
      "monsterType": [
        "Fusion"
      ]
    },
    {
      "name": "Elemental HERO Tempest",
      "rarity": "UR",
      "cardType": "Monster",
      "monsterType": [
        "Fusion"
      ]
    },
    {
      "name": "Elemental HERO Wildedge",
      "rarity": "UR",
      "cardType": "Monster",
      "monsterType": [
        "Fusion"
      ]
    },
    {
      "name": "Elemental HERO Shining Flare Wingman",
      "rarity": "UR",
      "cardType": "Monster",
      "monsterType": [
        "Fusion"
      ]
    },
    {
      "name": "Pot of Avarice",
      "rarity": "SR",
      "cardType": "Spell"
    },
    {
      "name": "Dark World Lightning",
      "rarity": "C",
      "cardType": "Spell"
    },
    {
      "name": "Level Modulation",
      "rarity": "C",
      "cardType": "Spell"
    },
    {
      "name": "Ojamagic",
      "rarity": "C",
      "cardType": "Spell"
    },
    {
      "name": "Ojamuscle",
      "rarity": "C",
      "cardType": "Spell"
    },
    {
      "name": "Feather Shot",
      "rarity": "R",
      "cardType": "Spell"
    },
    {
      "name": "Bonding - H2O",
      "rarity": "C",
      "cardType": "Spell"
    },
    {
      "name": "Chthonian Alliance",
      "rarity": "R",
      "cardType": "Spell"
    },
    {
      "name": "Armed Changer",
      "rarity": "R",
      "cardType": "Spell"
    },
    {
      "name": "Branch!",
      "rarity": "C",
      "cardType": "Spell"
    },
    {
      "name": "Boss Rush",
      "rarity": "C",
      "cardType": "Spell"
    },
    {
      "name": "Gateway to Dark World",
      "rarity": "C",
      "cardType": "Spell"
    },
    {
      "name": "Hero Barrier",
      "rarity": "R",
      "cardType": "Trap"
    },
    {
      "name": "Chthonian Blast",
      "rarity": "R",
      "cardType": "Trap"
    },
    {
      "name": "The Forces of Darkness",
      "rarity": "C",
      "cardType": "Trap"
    },
    {
      "name": "Dark Deal",
      "rarity": "C",
      "cardType": "Trap"
    },
    {
      "name": "Simultaneous Loss",
      "rarity": "C",
      "cardType": "Trap"
    },
    {
      "name": "Weed Out",
      "rarity": "C",
      "cardType": "Trap"
    },
    {
      "name": "The League of Uniform Nomenclature",
      "rarity": "C",
      "cardType": "Trap"
    },
    {
      "name": "Roll Out!",
      "rarity": "C",
      "cardType": "Trap"
    },
    {
      "name": "Chthonian Polymer",
      "rarity": "C",
      "cardType": "Trap"
    },
    {
      "name": "Feather Wind",
      "rarity": "C",
      "cardType": "Trap"
    },
    {
      "name": "Non-Fusion Area",
      "rarity": "C",
      "cardType": "Trap"
    },
    {
      "name": "Level Limit - Area A",
      "rarity": "R",
      "cardType": "Trap"
    }
  ]
}