{
  "name": "Flames of Eternity",
  "shortName": "fet",
  "list": [
    {
      "name": "Space Mambo",
      "rarity": "C",
      "cardType": "Monster",
      "monsterType": [
        "Normal"
      ]
    },
    {
      "name": "Divine Dragon Ragnarok",
      "rarity": "C",
      "cardType": "Monster",
      "monsterType": [
        "Normal"
      ]
    },
    {
      "name": "Chu-Ske the Mouse Fighter",
      "rarity": "C",
      "cardType": "Monster",
      "monsterType": [
        "Normal"
      ]
    },
    {
      "name": "Insect Knight",
      "rarity": "C",
      "cardType": "Monster",
      "monsterType": [
        "Normal"
      ]
    },
    {
      "name": "Sacred Phoenix of Nephthys",
      "rarity": "UR",
      "cardType": "Monster",
      "monsterType": [
        "Effect"
      ]
    },
    {
      "name": "Hand of Nephthys",
      "rarity": "C",
      "cardType": "Monster",
      "monsterType": [
        "Effect"
      ]
    },
    {
      "name": "Ultimate Insect LV5",
      "rarity": "R",
      "cardType": "Monster",
      "monsterType": [
        "Effect"
      ]
    },
    {
      "name": "Silent Swordsman LV5",
      "rarity": "UR",
      "cardType": "Monster",
      "monsterType": [
        "Effect"
      ]
    },
    {
      "name": "Granmarg the Rock Monarch",
      "rarity": "SR",
      "cardType": "Monster",
      "monsterType": [
        "Effect"
      ]
    },
    {
      "name": "Element Valkyrie",
      "rarity": "C",
      "cardType": "Monster",
      "monsterType": [
        "Effect"
      ]
    },
    {
      "name": "Element Doom",
      "rarity": "C",
      "cardType": "Monster",
      "monsterType": [
        "Effect"
      ]
    },
    {
      "name": "Maji-Gire Panda",
      "rarity": "C",
      "cardType": "Monster",
      "monsterType": [
        "Effect"
      ]
    },
    {
      "name": "Catnipped Kitty",
      "rarity": "C",
      "cardType": "Monster",
      "monsterType": [
        "Effect"
      ]
    },
    {
      "name": "Behemoth the King of All Animals",
      "rarity": "SR",
      "cardType": "Monster",
      "monsterType": [
        "Effect"
      ]
    },
    {
      "name": "Big-Tusked Mammoth",
      "rarity": "R",
      "cardType": "Monster",
      "monsterType": [
        "Effect"
      ]
    },
    {
      "name": "Kangaroo Champ",
      "rarity": "C",
      "cardType": "Monster",
      "monsterType": [
        "Effect"
      ]
    },
    {
      "name": "Hyena",
      "rarity": "C",
      "cardType": "Monster",
      "monsterType": [
        "Effect"
      ]
    },
    {
      "name": "Blade Rabbit",
      "rarity": "C",
      "cardType": "Monster",
      "monsterType": [
        "Effect"
      ]
    },
    {
      "name": "Mecha-Dog Marron",
      "rarity": "C",
      "cardType": "Monster",
      "monsterType": [
        "Effect"
      ]
    },
    {
      "name": "Blast Magician",
      "rarity": "SR",
      "cardType": "Monster",
      "monsterType": [
        "Effect"
      ]
    },
    {
      "name": "Chiron the Mage",
      "rarity": "R",
      "cardType": "Monster",
      "monsterType": [
        "Effect"
      ]
    },
    {
      "name": "Gearfried the Swordmaster",
      "rarity": "UR",
      "cardType": "Monster",
      "monsterType": [
        "Effect"
      ]
    },
    {
      "name": "Armed Samurai - Ben Kei",
      "rarity": "C",
      "cardType": "Monster",
      "monsterType": [
        "Effect"
      ]
    },
    {
      "name": "Shadowslayer",
      "rarity": "R",
      "cardType": "Monster",
      "monsterType": [
        "Effect"
      ]
    },
    {
      "name": "Golem Sentry",
      "rarity": "C",
      "cardType": "Monster",
      "monsterType": [
        "Effect"
      ]
    },
    {
      "name": "Abare Ushioni",
      "rarity": "C",
      "cardType": "Monster",
      "monsterType": [
        "Effect"
      ]
    },
    {
      "name": "The Light - Hex-Sealed Fusion",
      "rarity": "C",
      "cardType": "Monster",
      "monsterType": [
        "Effect"
      ]
    },
    {
      "name": "The Dark - Hex-Sealed Fusion",
      "rarity": "C",
      "cardType": "Monster",
      "monsterType": [
        "Effect"
      ]
    },
    {
      "name": "The Earth - Hex-Sealed Fusion",
      "rarity": "C",
      "cardType": "Monster",
      "monsterType": [
        "Effect"
      ]
    },
    {
      "name": "Whirlwind Prodigy",
      "rarity": "C",
      "cardType": "Monster",
      "monsterType": [
        "Effect"
      ]
    },
    {
      "name": "Flame Ruler",
      "rarity": "C",
      "cardType": "Monster",
      "monsterType": [
        "Effect"
      ]
    },
    {
      "name": "Firebird",
      "rarity": "C",
      "cardType": "Monster",
      "monsterType": [
        "Effect"
      ]
    },
    {
      "name": "Rescue Cat",
      "rarity": "C",
      "cardType": "Monster",
      "monsterType": [
        "Effect"
      ]
    },
    {
      "name": "Brain Jacker",
      "rarity": "R",
      "cardType": "Monster",
      "monsterType": [
        "Effect"
      ]
    },
    {
      "name": "Gatling Dragon",
      "rarity": "UR",
      "cardType": "Monster",
      "monsterType": [
        "Fusion"
      ]
    },
    {
      "name": "King Dragun",
      "rarity": "SR",
      "cardType": "Monster",
      "monsterType": [
        "Fusion"
      ]
    },
    {
      "name": "A Feather of the Phoenix",
      "rarity": "SR",
      "cardType": "Spell"
    },
    {
      "name": "Poison Fangs",
      "rarity": "C",
      "cardType": "Spell"
    },
    {
      "name": "Spell Absorption",
      "rarity": "R",
      "cardType": "Spell"
    },
    {
      "name": "Lightning Vortex",
      "rarity": "SR",
      "cardType": "Spell"
    },
    {
      "name": "Meteor of Destruction",
      "rarity": "R",
      "cardType": "Spell"
    },
    {
      "name": "Swords of Concealing Light",
      "rarity": "R",
      "cardType": "Spell"
    },
    {
      "name": "Spiral Spear Strike",
      "rarity": "R",
      "cardType": "Spell"
    },
    {
      "name": "Release Restraint",
      "rarity": "C",
      "cardType": "Spell"
    },
    {
      "name": "Centrifugal Field",
      "rarity": "C",
      "cardType": "Spell"
    },
    {
      "name": "Fulfillment of the Contract",
      "rarity": "C",
      "cardType": "Spell"
    },
    {
      "name": "Re-Fusion",
      "rarity": "C",
      "cardType": "Spell"
    },
    {
      "name": "The Big March of Animals",
      "rarity": "C",
      "cardType": "Spell"
    },
    {
      "name": "Cross Counter",
      "rarity": "R",
      "cardType": "Trap"
    },
    {
      "name": "Pole Position",
      "rarity": "C",
      "cardType": "Trap"
    },
    {
      "name": "Penalty Game!",
      "rarity": "R",
      "cardType": "Trap"
    },
    {
      "name": "Threatening Roar",
      "rarity": "C",
      "cardType": "Trap"
    },
    {
      "name": "Phoenix Wing Wind Blast",
      "rarity": "R",
      "cardType": "Trap"
    },
    {
      "name": "Good Goblin Housekeeping",
      "rarity": "C",
      "cardType": "Trap"
    },
    {
      "name": "Beast Soul Swap",
      "rarity": "C",
      "cardType": "Trap"
    },
    {
      "name": "Assault on GHQ",
      "rarity": "R",
      "cardType": "Trap"
    },
    {
      "name": "D.D. Dynamite",
      "rarity": "C",
      "cardType": "Trap"
    },
    {
      "name": "Deck Devastation Virus",
      "rarity": "SR",
      "cardType": "Trap"
    },
    {
      "name": "Elemental Burst",
      "rarity": "C",
      "cardType": "Trap"
    },
    {
      "name": "Forced Ceasefire",
      "rarity": "R",
      "cardType": "Trap"
    }
  ]
}