{
  "name": "Legend of Blue Eyes White Dragon",
  "shortName": "lob",
  "list": [
    {
      "name": "Tri-Horned Dragon",
      "rarity": "SCR",
      "cardType": "Monster",
      "monsterType": [
        "Normal"
      ]
    },
    {
      "name": "Blue-Eyes White Dragon",
      "rarity": "UR",
      "cardType": "Monster",
      "monsterType": [
        "Normal"
      ]
    },
    {
      "name": "Hitotsu-Me Giant",
      "rarity": "C",
      "cardType": "Monster",
      "monsterType": [
        "Normal"
      ]
    },
    {
      "name": "Flame Swordsman",
      "rarity": "SR",
      "cardType": "Monster",
      "monsterType": [
        "Fusion"
      ]
    },
    {
      "name": "Skull Servant",
      "rarity": "C",
      "cardType": "Monster",
      "monsterType": [
        "Normal"
      ]
    },
    {
      "name": "Dark Magician",
      "rarity": "UR",
      "cardType": "Monster",
      "monsterType": [
        "Normal"
      ]
    },
    {
      "name": "Gaia The Fierce Knight",
      "rarity": "UR",
      "cardType": "Monster",
      "monsterType": [
        "Normal"
      ]
    },
    {
      "name": "Celtic Guardian",
      "rarity": "SR",
      "cardType": "Monster",
      "monsterType": [
        "Normal"
      ]
    },
    {
      "name": "Basic Insect",
      "rarity": "C",
      "cardType": "Monster",
      "monsterType": [
        "Normal"
      ]
    },
    {
      "name": "Mammoth Graveyard",
      "rarity": "C",
      "cardType": "Monster",
      "monsterType": [
        "Normal"
      ]
    },
    {
      "name": "Silver Fang",
      "rarity": "C",
      "cardType": "Monster",
      "monsterType": [
        "Normal"
      ]
    },
    {
      "name": "Dark Gray",
      "rarity": "C",
      "cardType": "Monster",
      "monsterType": [
        "Normal"
      ]
    },
    {
      "name": "Trial of Nightmare",
      "rarity": "C",
      "cardType": "Monster",
      "monsterType": [
        "Normal"
      ]
    },
    {
      "name": "Nemuriko",
      "rarity": "C",
      "cardType": "Monster",
      "monsterType": [
        "Normal"
      ]
    },
    {
      "name": "The 13th Grave",
      "rarity": "C",
      "cardType": "Monster",
      "monsterType": [
        "Normal"
      ]
    },
    {
      "name": "Charubin the Fire Knight",
      "rarity": "R",
      "cardType": "Monster",
      "monsterType": [
        "Fusion"
      ]
    },
    {
      "name": "Flame Manipulator",
      "rarity": "C",
      "cardType": "Monster",
      "monsterType": [
        "Normal"
      ]
    },
    {
      "name": "Monster Egg",
      "rarity": "C",
      "cardType": "Monster",
      "monsterType": [
        "Normal"
      ]
    },
    {
      "name": "Firegrass",
      "rarity": "C",
      "cardType": "Monster",
      "monsterType": [
        "Normal"
      ]
    },
    {
      "name": "Darkfire Dragon",
      "rarity": "R",
      "cardType": "Monster",
      "monsterType": [
        "Fusion"
      ]
    },
    {
      "name": "Dark King of the Abyss",
      "rarity": "C",
      "cardType": "Monster",
      "monsterType": [
        "Normal"
      ]
    },
    {
      "name": "Fiend Reflection #2",
      "rarity": "C",
      "cardType": "Monster",
      "monsterType": [
        "Normal"
      ]
    },
    {
      "name": "Fusionist",
      "rarity": "R",
      "cardType": "Monster",
      "monsterType": [
        "Fusion"
      ]
    },
    {
      "name": "Turtle Tiger",
      "rarity": "C",
      "cardType": "Monster",
      "monsterType": [
        "Normal"
      ]
    },
    {
      "name": "Petit Dragon",
      "rarity": "C",
      "cardType": "Monster",
      "monsterType": [
        "Normal"
      ]
    },
    {
      "name": "Petit Angel",
      "rarity": "C",
      "cardType": "Monster",
      "monsterType": [
        "Normal"
      ]
    },
    {
      "name": "Hinotama Soul",
      "rarity": "C",
      "cardType": "Monster",
      "monsterType": [
        "Normal"
      ]
    },
    {
      "name": "Aqua Madoor",
      "rarity": "R",
      "cardType": "Monster",
      "monsterType": [
        "Normal"
      ]
    },
    {
      "name": "Kagemusha of the Blue Flame",
      "rarity": "C",
      "cardType": "Monster",
      "monsterType": [
        "Normal"
      ]
    },
    {
      "name": "Flame Ghost",
      "rarity": "R",
      "cardType": "Monster",
      "monsterType": [
        "Fusion"
      ]
    },
    {
      "name": "Two-Mouth Darkruler",
      "rarity": "C",
      "cardType": "Monster",
      "monsterType": [
        "Normal"
      ]
    },
    {
      "name": "Dissolverock",
      "rarity": "C",
      "cardType": "Monster",
      "monsterType": [
        "Normal"
      ]
    },
    {
      "name": "Root Water",
      "rarity": "C",
      "cardType": "Monster",
      "monsterType": [
        "Normal"
      ]
    },
    {
      "name": "The Furious Sea King",
      "rarity": "C",
      "cardType": "Monster",
      "monsterType": [
        "Normal"
      ]
    },
    {
      "name": "Green Phantom King",
      "rarity": "C",
      "cardType": "Monster",
      "monsterType": [
        "Normal"
      ]
    },
    {
      "name": "Ray & Temperature",
      "rarity": "C",
      "cardType": "Monster",
      "monsterType": [
        "Normal"
      ]
    },
    {
      "name": "King Fog",
      "rarity": "C",
      "cardType": "Monster",
      "monsterType": [
        "Normal"
      ]
    },
    {
      "name": "Mystical Sheep #2",
      "rarity": "C",
      "cardType": "Monster",
      "monsterType": [
        "Normal"
      ]
    },
    {
      "name": "Masaki the Legendary Swordsman",
      "rarity": "C",
      "cardType": "Monster",
      "monsterType": [
        "Normal"
      ]
    },
    {
      "name": "Kurama",
      "rarity": "C",
      "cardType": "Monster",
      "monsterType": [
        "Normal"
      ]
    },
    {
      "name": "Legendary Sword",
      "rarity": "SP",
      "cardType": "Spell"
    },
    {
      "name": "Beast Fangs",
      "rarity": "SP",
      "cardType": "Spell"
    },
    {
      "name": "Violet Crystal",
      "rarity": "SP",
      "cardType": "Spell"
    },
    {
      "name": "Book of Secret Arts",
      "rarity": "SP",
      "cardType": "Spell"
    },
    {
      "name": "Power of Kaishin",
      "rarity": "SP",
      "cardType": "Spell"
    },
    {
      "name": "Dragon Capture Jar",
      "rarity": "R",
      "cardType": "Trap"
    },
    {
      "name": "Forest",
      "rarity": "C",
      "cardType": "Spell"
    },
    {
      "name": "Wasteland",
      "rarity": "C",
      "cardType": "Spell"
    },
    {
      "name": "Mountain",
      "rarity": "C",
      "cardType": "Spell"
    },
    {
      "name": "Sogen",
      "rarity": "C",
      "cardType": "Spell"
    },
    {
      "name": "Umi",
      "rarity": "C",
      "cardType": "Spell"
    },
    {
      "name": "Yami",
      "rarity": "C",
      "cardType": "Spell"
    },
    {
      "name": "Dark Hole",
      "rarity": "SR",
      "cardType": "Spell"
    },
    {
      "name": "Raigeki",
      "rarity": "SR",
      "cardType": "Spell"
    },
    {
      "name": "Red Medicine",
      "rarity": "C",
      "cardType": "Spell"
    },
    {
      "name": "Sparks",
      "rarity": "C",
      "cardType": "Spell"
    },
    {
      "name": "Hinotama",
      "rarity": "C",
      "cardType": "Spell"
    },
    {
      "name": "Fissure",
      "rarity": "R",
      "cardType": "Spell"
    },
    {
      "name": "Trap Hole",
      "rarity": "SR",
      "cardType": "Trap"
    },
    {
      "name": "Polymerization",
      "rarity": "SR",
      "cardType": "Spell"
    },
    {
      "name": "Remove Trap",
      "rarity": "C",
      "cardType": "Spell"
    },
    {
      "name": "Two-Pronged Attack",
      "rarity": "R",
      "cardType": "Trap"
    },
    {
      "name": "Mystical Elf",
      "rarity": "SR",
      "cardType": "Monster",
      "monsterType": [
        "Normal"
      ]
    },
    {
      "name": "Tyhone",
      "rarity": "C",
      "cardType": "Monster",
      "monsterType": [
        "Normal"
      ]
    },
    {
      "name": "Beaver Warrior",
      "rarity": "C",
      "cardType": "Monster",
      "monsterType": [
        "Normal"
      ]
    },
    {
      "name": "Gravedigger Ghoul",
      "rarity": "R",
      "cardType": "Spell"
    },
    {
      "name": "Curse of Dragon",
      "rarity": "SR",
      "cardType": "Monster",
      "monsterType": [
        "Normal"
      ]
    },
    {
      "name": "Karbonala Warrior",
      "rarity": "R",
      "cardType": "Monster",
      "monsterType": [
        "Fusion"
      ]
    },
    {
      "name": "Giant Soldier of Stone",
      "rarity": "R",
      "cardType": "Monster",
      "monsterType": [
        "Normal"
      ]
    },
    {
      "name": "Uraby",
      "rarity": "C",
      "cardType": "Monster",
      "monsterType": [
        "Normal"
      ]
    },
    {
      "name": "Red-Eyes B. Dragon",
      "rarity": "UR",
      "cardType": "Monster",
      "monsterType": [
        "Normal"
      ]
    },
    {
      "name": "Reaper of the Cards",
      "rarity": "R",
      "cardType": "Monster",
      "monsterType": [
        "Effect"
      ]
    },
    {
      "name": "Witty Phantom",
      "rarity": "C",
      "cardType": "Monster",
      "monsterType": [
        "Normal"
      ]
    },
    {
      "name": "Larvas",
      "rarity": "C",
      "cardType": "Monster",
      "monsterType": [
        "Normal"
      ]
    },
    {
      "name": "Hard Armor",
      "rarity": "C",
      "cardType": "Monster",
      "monsterType": [
        "Normal"
      ]
    },
    {
      "name": "Man Eater",
      "rarity": "C",
      "cardType": "Monster",
      "monsterType": [
        "Normal"
      ]
    },
    {
      "name": "M-Warrior #1",
      "rarity": "C",
      "cardType": "Monster",
      "monsterType": [
        "Normal"
      ]
    },
    {
      "name": "M-Warrior #2",
      "rarity": "C",
      "cardType": "Monster",
      "monsterType": [
        "Normal"
      ]
    },
    {
      "name": "Spirit of the Harp",
      "rarity": "R",
      "cardType": "Monster",
      "monsterType": [
        "Normal"
      ]
    },
    {
      "name": "Armaill",
      "rarity": "C",
      "cardType": "Monster",
      "monsterType": [
        "Normal"
      ]
    },
    {
      "name": "Terra the Terrible",
      "rarity": "C",
      "cardType": "Monster",
      "monsterType": [
        "Normal"
      ]
    },
    {
      "name": "Frenzied Panda",
      "rarity": "C",
      "cardType": "Monster",
      "monsterType": [
        "Normal"
      ]
    },
    {
      "name": "Kumootoko",
      "rarity": "C",
      "cardType": "Monster",
      "monsterType": [
        "Normal"
      ]
    },
    {
      "name": "Meda Bat",
      "rarity": "C",
      "cardType": "Monster",
      "monsterType": [
        "Normal"
      ]
    },
    {
      "name": "Enchanting Mermaid",
      "rarity": "C",
      "cardType": "Monster",
      "monsterType": [
        "Normal"
      ]
    },
    {
      "name": "Fireyarou",
      "rarity": "C",
      "cardType": "Monster",
      "monsterType": [
        "Normal"
      ]
    },
    {
      "name": "Dragoness the Wicked Knight",
      "rarity": "R",
      "cardType": "Monster",
      "monsterType": [
        "Fusion"
      ]
    },
    {
      "name": "One-Eyed Shield Dragon",
      "rarity": "C",
      "cardType": "Monster",
      "monsterType": [
        "Normal"
      ]
    },
    {
      "name": "Dark Energy",
      "rarity": "SP",
      "cardType": "Spell"
    },
    {
      "name": "Laser Cannon Armor",
      "rarity": "SP",
      "cardType": "Spell"
    },
    {
      "name": "Vile Germs",
      "rarity": "SP",
      "cardType": "Spell"
    },
    {
      "name": "Silver Bow and Arrow",
      "rarity": "SP",
      "cardType": "Spell"
    },
    {
      "name": "Dragon Treasure",
      "rarity": "SP",
      "cardType": "Spell"
    },
    {
      "name": "Electro-Whip",
      "rarity": "SP",
      "cardType": "Spell"
    },
    {
      "name": "Mystical Moon",
      "rarity": "SP",
      "cardType": "Spell"
    },
    {
      "name": "Stop Defense",
      "rarity": "R",
      "cardType": "Spell"
    },
    {
      "name": "Machine Conversion Factory",
      "rarity": "SP",
      "cardType": "Spell"
    },
    {
      "name": "Raise Body Heat",
      "rarity": "SP",
      "cardType": "Spell"
    },
    {
      "name": "Follow Wind",
      "rarity": "SP",
      "cardType": "Spell"
    },
    {
      "name": "Goblin's Secret Remedy",
      "rarity": "R",
      "cardType": "Spell"
    },
    {
      "name": "Final Flame",
      "rarity": "R",
      "cardType": "Spell"
    },
    {
      "name": "Swords of Revealing Light",
      "rarity": "SR",
      "cardType": "Spell"
    },
    {
      "name": "Metal Dragon",
      "rarity": "R",
      "cardType": "Monster",
      "monsterType": [
        "Fusion"
      ]
    },
    {
      "name": "Spike Seadra",
      "rarity": "C",
      "cardType": "Monster",
      "monsterType": [
        "Normal"
      ]
    },
    {
      "name": "Tripwire Beast",
      "rarity": "C",
      "cardType": "Monster",
      "monsterType": [
        "Normal"
      ]
    },
    {
      "name": "Skull Red Bird",
      "rarity": "C",
      "cardType": "Monster",
      "monsterType": [
        "Normal"
      ]
    },
    {
      "name": "Armed Ninja",
      "rarity": "R",
      "cardType": "Monster",
      "monsterType": [
        "Effect"
      ]
    },
    {
      "name": "Flower Wolf",
      "rarity": "R",
      "cardType": "Monster",
      "monsterType": [
        "Fusion"
      ]
    },
    {
      "name": "Man-Eater Bug",
      "rarity": "SR",
      "cardType": "Monster",
      "monsterType": [
        "Effect"
      ]
    },
    {
      "name": "Sand Stone",
      "rarity": "C",
      "cardType": "Monster",
      "monsterType": [
        "Normal"
      ]
    },
    {
      "name": "Hane-Hane",
      "rarity": "R",
      "cardType": "Monster",
      "monsterType": [
        "Effect"
      ]
    },
    {
      "name": "Misairuzame",
      "rarity": "C",
      "cardType": "Monster",
      "monsterType": [
        "Normal"
      ]
    },
    {
      "name": "Steel Ogre Grotto #1",
      "rarity": "C",
      "cardType": "Monster",
      "monsterType": [
        "Normal"
      ]
    },
    {
      "name": "Lesser Dragon",
      "rarity": "C",
      "cardType": "Monster",
      "monsterType": [
        "Normal"
      ]
    },
    {
      "name": "Darkworld Thorns",
      "rarity": "C",
      "cardType": "Monster",
      "monsterType": [
        "Normal"
      ]
    },
    {
      "name": "Drooling Lizard",
      "rarity": "C",
      "cardType": "Monster",
      "monsterType": [
        "Normal"
      ]
    },
    {
      "name": "Armored Starfish",
      "rarity": "C",
      "cardType": "Monster",
      "monsterType": [
        "Normal"
      ]
    },
    {
      "name": "Succubus Knight",
      "rarity": "C",
      "cardType": "Monster",
      "monsterType": [
        "Normal"
      ]
    },
    {
      "name": "Monster Reborn",
      "rarity": "UR",
      "cardType": "Spell"
    },
    {
      "name": "Pot of Greed",
      "rarity": "R",
      "cardType": "Spell"
    },
    {
      "name": "Right Leg of the Forbidden One",
      "rarity": "UR",
      "cardType": "Monster",
      "monsterType": [
        "Normal"
      ]
    },
    {
      "name": "Left Leg of the Forbidden One",
      "rarity": "UR",
      "cardType": "Monster",
      "monsterType": [
        "Normal"
      ]
    },
    {
      "name": "Right Arm of the Forbidden One",
      "rarity": "UR",
      "cardType": "Monster",
      "monsterType": [
        "Normal"
      ]
    },
    {
      "name": "Left Arm of the Forbidden One",
      "rarity": "UR",
      "cardType": "Monster",
      "monsterType": [
        "Normal"
      ]
    },
    {
      "name": "Exodia the Forbidden One",
      "rarity": "UR",
      "cardType": "Monster",
      "monsterType": [
        "Effect"
      ]
    },
    {
      "name": "Gaia the Dragon Champion",
      "rarity": "SCR",
      "cardType": "Monster",
      "monsterType": [
        "Fusion"
      ]
    }
  ]
}