{
  "name": "Number Hunters",
  "shortName": "numh",
  "list": [
    {
      "name": "Chronomaly Aztec Mask Golem",
      "rarity": "SR",
      "cardType": "Monster",
      "monsterType": [
        "Effect"
      ]
    },
    {
      "name": "Chronomaly Cabrera Trebuchet",
      "rarity": "SR",
      "cardType": "Monster",
      "monsterType": [
        "Effect"
      ]
    },
    {
      "name": "Chronomaly Mud Golem",
      "rarity": "SR",
      "cardType": "Monster",
      "monsterType": [
        "Effect"
      ]
    },
    {
      "name": "Chronomaly Sol Monolith",
      "rarity": "SR",
      "cardType": "Monster",
      "monsterType": [
        "Effect"
      ]
    },
    {
      "name": "Gimmick Puppet Egg Head",
      "rarity": "SR",
      "cardType": "Monster",
      "monsterType": [
        "Effect"
      ]
    },
    {
      "name": "Gimmick Puppet Gear Changer",
      "rarity": "SR",
      "cardType": "Monster",
      "monsterType": [
        "Effect"
      ]
    },
    {
      "name": "Gimmick Puppet Twilight Joker",
      "rarity": "SR",
      "cardType": "Monster",
      "monsterType": [
        "Effect"
      ]
    },
    {
      "name": "Gimmick Puppet Scissor Arms",
      "rarity": "SR",
      "cardType": "Monster",
      "monsterType": [
        "Effect"
      ]
    },
    {
      "name": "Gimmick Puppet Nightmare",
      "rarity": "SR",
      "cardType": "Monster",
      "monsterType": [
        "Effect"
      ]
    },
    {
      "name": "Heroic Challenger - Ambush Soldier",
      "rarity": "SCR",
      "cardType": "Monster",
      "monsterType": [
        "Effect"
      ]
    },
    {
      "name": "Heroic Challenger - Clasp Sword",
      "rarity": "SR",
      "cardType": "Monster",
      "monsterType": [
        "Effect"
      ]
    },
    {
      "name": "Blue Mountain Butterspy",
      "rarity": "SR",
      "cardType": "Monster",
      "monsterType": [
        "Effect"
      ]
    },
    {
      "name": "Box of Friends",
      "rarity": "SCR",
      "cardType": "Monster",
      "monsterType": [
        "Effect"
      ]
    },
    {
      "name": "Zombowwow",
      "rarity": "SR",
      "cardType": "Monster",
      "monsterType": [
        "Effect"
      ]
    },
    {
      "name": "Gash the Dust Lord",
      "rarity": "SR",
      "cardType": "Monster",
      "monsterType": [
        "Effect"
      ]
    },
    {
      "name": "Zubaba Knight",
      "rarity": "SR",
      "cardType": "Monster",
      "monsterType": [
        "Effect"
      ]
    },
    {
      "name": "Gogogo Golem",
      "rarity": "SR",
      "cardType": "Monster",
      "monsterType": [
        "Effect"
      ]
    },
    {
      "name": "Kagetokage",
      "rarity": "SR",
      "cardType": "Monster",
      "monsterType": [
        "Effect"
      ]
    },
    {
      "name": "Kurivolt",
      "rarity": "SR",
      "cardType": "Monster",
      "monsterType": [
        "Effect"
      ]
    },
    {
      "name": "Gogogo Giant",
      "rarity": "SR",
      "cardType": "Monster",
      "monsterType": [
        "Effect"
      ]
    },
    {
      "name": "Gagaga Gardna",
      "rarity": "SR",
      "cardType": "Monster",
      "monsterType": [
        "Effect"
      ]
    },
    {
      "name": "Photon Cerberus",
      "rarity": "SR",
      "cardType": "Monster",
      "monsterType": [
        "Effect"
      ]
    },
    {
      "name": "Photon Lizard",
      "rarity": "SR",
      "cardType": "Monster",
      "monsterType": [
        "Effect"
      ]
    },
    {
      "name": "Rocket Arrow Express",
      "rarity": "SR",
      "cardType": "Monster",
      "monsterType": [
        "Effect"
      ]
    },
    {
      "name": "Battle Warrior",
      "rarity": "SR",
      "cardType": "Monster",
      "monsterType": [
        "Normal"
      ]
    },
    {
      "name": "Number 54: Lion Heart",
      "rarity": "SCR",
      "cardType": "Monster",
      "monsterType": [
        "Xyz"
      ]
    },
    {
      "name": "Number 15: Gimmick Puppet Giant Grinder",
      "rarity": "SCR",
      "cardType": "Monster",
      "monsterType": [
        "Xyz"
      ]
    },
    {
      "name": "Number 44: Sky Pegasus",
      "rarity": "SCR",
      "cardType": "Monster",
      "monsterType": [
        "Xyz"
      ]
    },
    {
      "name": "Number 49: Fortune Tune",
      "rarity": "SCR",
      "cardType": "Monster",
      "monsterType": [
        "Xyz"
      ]
    },
    {
      "name": "Number 57: Tri-Head Dust Dragon",
      "rarity": "SCR",
      "cardType": "Monster",
      "monsterType": [
        "Xyz"
      ]
    },
    {
      "name": "Number 63: Shamoji Soldier",
      "rarity": "SR",
      "cardType": "Monster",
      "monsterType": [
        "Xyz"
      ]
    },
    {
      "name": "Number 74: Master of Blades",
      "rarity": "SCR",
      "cardType": "Monster",
      "monsterType": [
        "Xyz"
      ]
    },
    {
      "name": "Number 85: Crazy Box",
      "rarity": "SR",
      "cardType": "Monster",
      "monsterType": [
        "Xyz"
      ]
    },
    {
      "name": "Number 87: Queen of the Night",
      "rarity": "SR",
      "cardType": "Monster",
      "monsterType": [
        "Xyz"
      ]
    },
    {
      "name": "Mechquipped Angineer",
      "rarity": "SR",
      "cardType": "Monster",
      "monsterType": [
        "Xyz"
      ]
    },
    {
      "name": "CXyz Mechquipped Djinn Angeneral",
      "rarity": "SR",
      "cardType": "Monster",
      "monsterType": [
        "Xyz"
      ]
    },
    {
      "name": "Coach King Giantrainer",
      "rarity": "SCR",
      "cardType": "Monster",
      "monsterType": [
        "Xyz"
      ]
    },
    {
      "name": "CXyz Coach Lord Ultimatrainer",
      "rarity": "SCR",
      "cardType": "Monster",
      "monsterType": [
        "Xyz"
      ]
    },
    {
      "name": "Norito the Moral Leader",
      "rarity": "SCR",
      "cardType": "Monster",
      "monsterType": [
        "Xyz"
      ]
    },
    {
      "name": "CXyz Simon the Great Moral Leader",
      "rarity": "SCR",
      "cardType": "Monster",
      "monsterType": [
        "Xyz"
      ]
    },
    {
      "name": "Comics Hero King Arthur",
      "rarity": "SCR",
      "cardType": "Monster",
      "monsterType": [
        "Xyz"
      ]
    },
    {
      "name": "CXyz Comics Hero Legend Arthur",
      "rarity": "SCR",
      "cardType": "Monster",
      "monsterType": [
        "Xyz"
      ]
    },
    {
      "name": "Battlecruiser Dianthus",
      "rarity": "SR",
      "cardType": "Monster",
      "monsterType": [
        "Xyz"
      ]
    },
    {
      "name": "CXyz Battleship Cherry Blossom",
      "rarity": "SCR",
      "cardType": "Monster",
      "monsterType": [
        "Xyz"
      ]
    },
    {
      "name": "Skypalace Gangaridai",
      "rarity": "SCR",
      "cardType": "Monster",
      "monsterType": [
        "Xyz"
      ]
    },
    {
      "name": "CXyz Skypalace Babylon",
      "rarity": "SCR",
      "cardType": "Monster",
      "monsterType": [
        "Xyz"
      ]
    },
    {
      "name": "Photon Alexandra Queen",
      "rarity": "SCR",
      "cardType": "Monster",
      "monsterType": [
        "Xyz"
      ]
    },
    {
      "name": "Night Papilloperative",
      "rarity": "SR",
      "cardType": "Monster",
      "monsterType": [
        "Xyz"
      ]
    },
    {
      "name": "Unformed Void",
      "rarity": "SR",
      "cardType": "Monster",
      "monsterType": [
        "Xyz"
      ]
    },
    {
      "name": "Princess Cologne",
      "rarity": "SCR",
      "cardType": "Monster",
      "monsterType": [
        "Xyz"
      ]
    },
    {
      "name": "Baby Tiragon",
      "rarity": "SR",
      "cardType": "Monster",
      "monsterType": [
        "Xyz"
      ]
    },
    {
      "name": "Chakra",
      "rarity": "SR",
      "cardType": "Monster",
      "monsterType": [
        "Ritual"
      ]
    },
    {
      "name": "Resurrection of Chakra",
      "rarity": "SR",
      "cardType": "Spell"
    },
    {
      "name": "Puppet Ritual",
      "rarity": "SR",
      "cardType": "Spell"
    },
    {
      "name": "Stoic Challenge",
      "rarity": "SR",
      "cardType": "Spell"
    },
    {
      "name": "Overlay Capture",
      "rarity": "SR",
      "cardType": "Spell"
    },
    {
      "name": "Insect Armor with Laser Cannon",
      "rarity": "SR",
      "cardType": "Spell"
    },
    {
      "name": "Number Wall",
      "rarity": "SCR",
      "cardType": "Trap"
    },
    {
      "name": "Heraldry Record",
      "rarity": "SR",
      "cardType": "Trap"
    },
    {
      "name": "Butterspy Protection",
      "rarity": "SR",
      "cardType": "Trap"
    }
  ]
}