{
  "name": "Pharonic Guardian",
  "shortName": "pgd",
  "list": [
    {
      "name": "Ring of Destruction",
      "rarity": "SCR",
      "cardType": "Trap"
    },
    {
      "name": "Molten Behemoth",
      "rarity": "C",
      "cardType": "Monster",
      "monsterType": [
        "Normal"
      ]
    },
    {
      "name": "Shapesnatch",
      "rarity": "C",
      "cardType": "Monster",
      "monsterType": [
        "Normal"
      ]
    },
    {
      "name": "Souleater",
      "rarity": "C",
      "cardType": "Monster",
      "monsterType": [
        "Normal"
      ]
    },
    {
      "name": "King Tiger Wanghu",
      "rarity": "R",
      "cardType": "Monster",
      "monsterType": [
        "Effect"
      ]
    },
    {
      "name": "Birdface",
      "rarity": "C",
      "cardType": "Monster",
      "monsterType": [
        "Effect"
      ]
    },
    {
      "name": "Kryuel",
      "rarity": "C",
      "cardType": "Monster",
      "monsterType": [
        "Effect"
      ]
    },
    {
      "name": "Arsenal Bug",
      "rarity": "C",
      "cardType": "Monster",
      "monsterType": [
        "Effect"
      ]
    },
    {
      "name": "Maiden of the Aqua",
      "rarity": "SP",
      "cardType": "Monster",
      "monsterType": [
        "Effect"
      ]
    },
    {
      "name": "Jowls of Dark Demise",
      "rarity": "R",
      "cardType": "Monster",
      "monsterType": [
        "Effect"
      ]
    },
    {
      "name": "Timeater",
      "rarity": "C",
      "cardType": "Monster",
      "monsterType": [
        "Effect"
      ]
    },
    {
      "name": "Mucus Yolk",
      "rarity": "C",
      "cardType": "Monster",
      "monsterType": [
        "Effect"
      ]
    },
    {
      "name": "Servant of Catabolism",
      "rarity": "C",
      "cardType": "Monster",
      "monsterType": [
        "Effect"
      ]
    },
    {
      "name": "Moisture Creature",
      "rarity": "R",
      "cardType": "Monster",
      "monsterType": [
        "Effect"
      ]
    },
    {
      "name": "Gora Turtle",
      "rarity": "R",
      "cardType": "Monster",
      "monsterType": [
        "Effect"
      ]
    },
    {
      "name": "Sasuke Samurai",
      "rarity": "SR",
      "cardType": "Monster",
      "monsterType": [
        "Effect"
      ]
    },
    {
      "name": "Poison Mummy",
      "rarity": "C",
      "cardType": "Monster",
      "monsterType": [
        "Effect"
      ]
    },
    {
      "name": "Dark Dust Spirit",
      "rarity": "SP",
      "cardType": "Monster",
      "monsterType": [
        "Effect"
      ]
    },
    {
      "name": "Royal Keeper",
      "rarity": "C",
      "cardType": "Monster",
      "monsterType": [
        "Effect"
      ]
    },
    {
      "name": "Wandering Mummy",
      "rarity": "R",
      "cardType": "Monster",
      "monsterType": [
        "Effect"
      ]
    },
    {
      "name": "Great Dezard",
      "rarity": "UR",
      "cardType": "Monster",
      "monsterType": [
        "Effect"
      ]
    },
    {
      "name": "Swarm of Scarabs",
      "rarity": "C",
      "cardType": "Monster",
      "monsterType": [
        "Effect"
      ]
    },
    {
      "name": "Swarm of Locusts",
      "rarity": "C",
      "cardType": "Monster",
      "monsterType": [
        "Effect"
      ]
    },
    {
      "name": "Giant Axe Mummy",
      "rarity": "C",
      "cardType": "Monster",
      "monsterType": [
        "Effect"
      ]
    },
    {
      "name": "8-Claws Scorpion",
      "rarity": "C",
      "cardType": "Monster",
      "monsterType": [
        "Effect"
      ]
    },
    {
      "name": "Guardian Sphinx",
      "rarity": "UR",
      "cardType": "Monster",
      "monsterType": [
        "Effect"
      ]
    },
    {
      "name": "Pyramid Turtle",
      "rarity": "R",
      "cardType": "Monster",
      "monsterType": [
        "Effect"
      ]
    },
    {
      "name": "Dice Jar",
      "rarity": "SP",
      "cardType": "Monster",
      "monsterType": [
        "Effect"
      ]
    },
    {
      "name": "Dark Scorpion Burglars",
      "rarity": "SP",
      "cardType": "Monster",
      "monsterType": [
        "Effect"
      ]
    },
    {
      "name": "Don Zaloog",
      "rarity": "UR",
      "cardType": "Monster",
      "monsterType": [
        "Effect"
      ]
    },
    {
      "name": "Des Lacooda",
      "rarity": "C",
      "cardType": "Monster",
      "monsterType": [
        "Effect"
      ]
    },
    {
      "name": "Fushioh Richie",
      "rarity": "UR",
      "cardType": "Monster",
      "monsterType": [
        "Effect"
      ]
    },
    {
      "name": "Cobraman Sakuzy",
      "rarity": "C",
      "cardType": "Monster",
      "monsterType": [
        "Effect"
      ]
    },
    {
      "name": "Book of Life",
      "rarity": "SR",
      "cardType": "Spell"
    },
    {
      "name": "Book of Taiyou",
      "rarity": "SP",
      "cardType": "Spell"
    },
    {
      "name": "Book of Moon",
      "rarity": "R",
      "cardType": "Spell"
    },
    {
      "name": "Mirage of Nightmare",
      "rarity": "SR",
      "cardType": "Spell"
    },
    {
      "name": "Secret Pass to the Treasures",
      "rarity": "C",
      "cardType": "Spell"
    },
    {
      "name": "Call of the Mummy",
      "rarity": "C",
      "cardType": "Spell"
    },
    {
      "name": "Timidity",
      "rarity": "C",
      "cardType": "Spell"
    },
    {
      "name": "Pyramid Energy",
      "rarity": "C",
      "cardType": "Spell"
    },
    {
      "name": "Tutan Mask",
      "rarity": "C",
      "cardType": "Trap"
    },
    {
      "name": "Ordeal of a Traveler",
      "rarity": "SP",
      "cardType": "Trap"
    },
    {
      "name": "Bottomless Shifting Sand",
      "rarity": "C",
      "cardType": "Trap"
    },
    {
      "name": "Curse of Royal",
      "rarity": "R",
      "cardType": "Trap"
    },
    {
      "name": "Needle Ceiling",
      "rarity": "C",
      "cardType": "Trap"
    },
    {
      "name": "Statue of the Wicked",
      "rarity": "SR",
      "cardType": "Trap"
    },
    {
      "name": "Dark Coffin",
      "rarity": "SP",
      "cardType": "Trap"
    },
    {
      "name": "Needle Wall",
      "rarity": "C",
      "cardType": "Trap"
    },
    {
      "name": "Trap Dustshoot",
      "rarity": "C",
      "cardType": "Trap"
    },
    {
      "name": "Pyro Clock of Destiny",
      "rarity": "C",
      "cardType": "Trap"
    },
    {
      "name": "Reckless Greed",
      "rarity": "R",
      "cardType": "Trap"
    },
    {
      "name": "Pharaoh's Treasure",
      "rarity": "R",
      "cardType": "Trap"
    },
    {
      "name": "Master Kyonshee",
      "rarity": "C",
      "cardType": "Monster",
      "monsterType": [
        "Normal"
      ]
    },
    {
      "name": "Kabazauls",
      "rarity": "C",
      "cardType": "Monster",
      "monsterType": [
        "Normal"
      ]
    },
    {
      "name": "Inpachi",
      "rarity": "C",
      "cardType": "Monster",
      "monsterType": [
        "Normal"
      ]
    },
    {
      "name": "Dark Jeroid",
      "rarity": "R",
      "cardType": "Monster",
      "monsterType": [
        "Effect"
      ]
    },
    {
      "name": "Newdoria",
      "rarity": "R",
      "cardType": "Monster",
      "monsterType": [
        "Effect"
      ]
    },
    {
      "name": "Helpoemer",
      "rarity": "UR",
      "cardType": "Monster",
      "monsterType": [
        "Effect"
      ]
    },
    {
      "name": "Gravekeeper's Spy",
      "rarity": "SP",
      "cardType": "Monster",
      "monsterType": [
        "Effect"
      ]
    },
    {
      "name": "Gravekeeper's Curse",
      "rarity": "C",
      "cardType": "Monster",
      "monsterType": [
        "Effect"
      ]
    },
    {
      "name": "Gravekeeper's Guard",
      "rarity": "C",
      "cardType": "Monster",
      "monsterType": [
        "Effect"
      ]
    },
    {
      "name": "Gravekeeper's Spear Soldier",
      "rarity": "SP",
      "cardType": "Monster",
      "monsterType": [
        "Effect"
      ]
    },
    {
      "name": "Gravekeeper's Vassal",
      "rarity": "C",
      "cardType": "Monster",
      "monsterType": [
        "Effect"
      ]
    },
    {
      "name": "Gravekeeper's Watcher",
      "rarity": "R",
      "cardType": "Monster",
      "monsterType": [
        "Effect"
      ]
    },
    {
      "name": "Gravekeeper's Chief",
      "rarity": "SR",
      "cardType": "Monster",
      "monsterType": [
        "Effect"
      ]
    },
    {
      "name": "Gravekeeper's Cannonholder",
      "rarity": "SP",
      "cardType": "Monster",
      "monsterType": [
        "Effect"
      ]
    },
    {
      "name": "Gravekeeper's Assailant",
      "rarity": "C",
      "cardType": "Monster",
      "monsterType": [
        "Effect"
      ]
    },
    {
      "name": "A Man with Wdjat",
      "rarity": "C",
      "cardType": "Monster",
      "monsterType": [
        "Effect"
      ]
    },
    {
      "name": "Mystical Knight of Jackal",
      "rarity": "UR",
      "cardType": "Monster",
      "monsterType": [
        "Effect"
      ]
    },
    {
      "name": "A Cat of Ill Omen",
      "rarity": "SP",
      "cardType": "Monster",
      "monsterType": [
        "Effect"
      ]
    },
    {
      "name": "Yomi Ship",
      "rarity": "C",
      "cardType": "Monster",
      "monsterType": [
        "Effect"
      ]
    },
    {
      "name": "Winged Sage Falcos",
      "rarity": "R",
      "cardType": "Monster",
      "monsterType": [
        "Effect"
      ]
    },
    {
      "name": "An Owl of Luck",
      "rarity": "SP",
      "cardType": "Monster",
      "monsterType": [
        "Effect"
      ]
    },
    {
      "name": "Charm of Shabti",
      "rarity": "C",
      "cardType": "Monster",
      "monsterType": [
        "Effect"
      ]
    },
    {
      "name": "Cobra Jar",
      "rarity": "SP",
      "cardType": "Monster",
      "monsterType": [
        "Effect"
      ]
    },
    {
      "name": "Spirit Reaper",
      "rarity": "R",
      "cardType": "Monster",
      "monsterType": [
        "Effect"
      ]
    },
    {
      "name": "Nightmare Horse",
      "rarity": "C",
      "cardType": "Monster",
      "monsterType": [
        "Effect"
      ]
    },
    {
      "name": "Reaper on the Nightmare",
      "rarity": "SR",
      "cardType": "Monster",
      "monsterType": [
        "Fusion"
      ]
    },
    {
      "name": "Dark Designator",
      "rarity": "R",
      "cardType": "Spell"
    },
    {
      "name": "Card Shuffle",
      "rarity": "C",
      "cardType": "Spell"
    },
    {
      "name": "Reasoning",
      "rarity": "C",
      "cardType": "Spell"
    },
    {
      "name": "Dark Room of Nightmare",
      "rarity": "SR",
      "cardType": "Spell"
    },
    {
      "name": "Different Dimension Capsule",
      "rarity": "C",
      "cardType": "Spell"
    },
    {
      "name": "Necrovalley",
      "rarity": "SR",
      "cardType": "Spell"
    },
    {
      "name": "Buster Rancher",
      "rarity": "C",
      "cardType": "Spell"
    },
    {
      "name": "Hieroglyph Lithograph",
      "rarity": "C",
      "cardType": "Spell"
    },
    {
      "name": "Dark Snake Syndrome",
      "rarity": "C",
      "cardType": "Spell"
    },
    {
      "name": "Terraforming",
      "rarity": "C",
      "cardType": "Spell"
    },
    {
      "name": "Banner of Courage",
      "rarity": "C",
      "cardType": "Spell"
    },
    {
      "name": "Metamorphosis",
      "rarity": "C",
      "cardType": "Spell"
    },
    {
      "name": "Royal Tribute",
      "rarity": "C",
      "cardType": "Spell"
    },
    {
      "name": "Reversal Quiz",
      "rarity": "C",
      "cardType": "Spell"
    },
    {
      "name": "Coffin Seller",
      "rarity": "R",
      "cardType": "Trap"
    },
    {
      "name": "Curse of Aging",
      "rarity": "C",
      "cardType": "Trap"
    },
    {
      "name": "Barrel Behind the Door",
      "rarity": "SR",
      "cardType": "Trap"
    },
    {
      "name": "Raigeki Break",
      "rarity": "C",
      "cardType": "Trap"
    },
    {
      "name": "Narrow Pass",
      "rarity": "C",
      "cardType": "Trap"
    },
    {
      "name": "Disturbance Strategy",
      "rarity": "C",
      "cardType": "Trap"
    },
    {
      "name": "Trap of Board Eraser",
      "rarity": "SR",
      "cardType": "Trap"
    },
    {
      "name": "Rite of Spirit",
      "rarity": "C",
      "cardType": "Trap"
    },
    {
      "name": "Non Aggression Area",
      "rarity": "C",
      "cardType": "Trap"
    },
    {
      "name": "D. Tribe",
      "rarity": "C",
      "cardType": "Trap"
    },
    {
      "name": "Byser Shock",
      "rarity": "UR",
      "cardType": "Monster",
      "monsterType": [
        "Effect"
      ]
    },
    {
      "name": "Question",
      "rarity": "UR",
      "cardType": "Spell"
    },
    {
      "name": "Rope of Life",
      "rarity": "UR",
      "cardType": "Trap"
    },
    {
      "name": "Nightmare Wheel",
      "rarity": "UR",
      "cardType": "Trap"
    },
    {
      "name": "Lava Golem",
      "rarity": "SCR",
      "cardType": "Monster",
      "monsterType": [
        "Effect"
      ]
    }
  ]
}