{
  "name": "Soul of the Duelist",
  "shortName": "sod",
  "list": [
    {
      "name": "Charcoal Inpachi",
      "rarity": "R",
      "cardType": "Monster",
      "monsterType": [
        "Normal"
      ]
    },
    {
      "name": "Neo Aqua Madoor",
      "rarity": "C",
      "cardType": "Monster",
      "monsterType": [
        "Normal"
      ]
    },
    {
      "name": "Skull Dog Marron",
      "rarity": "C",
      "cardType": "Monster",
      "monsterType": [
        "Normal"
      ]
    },
    {
      "name": "Goblin Calligrapher",
      "rarity": "C",
      "cardType": "Monster",
      "monsterType": [
        "Normal"
      ]
    },
    {
      "name": "Ultimate Insect LV1",
      "rarity": "R",
      "cardType": "Monster",
      "monsterType": [
        "Effect"
      ]
    },
    {
      "name": "Horus the Black Flame Dragon LV4",
      "rarity": "R",
      "cardType": "Monster",
      "monsterType": [
        "Effect"
      ]
    },
    {
      "name": "Horus the Black Flame Dragon LV6",
      "rarity": "SR",
      "cardType": "Monster",
      "monsterType": [
        "Effect"
      ]
    },
    {
      "name": "Horus the Black Flame Dragon LV8",
      "rarity": "UR",
      "cardType": "Monster",
      "monsterType": [
        "Effect"
      ]
    },
    {
      "name": "Dark Mimic LV1",
      "rarity": "C",
      "cardType": "Monster",
      "monsterType": [
        "Effect"
      ]
    },
    {
      "name": "Dark Mimic LV3",
      "rarity": "R",
      "cardType": "Monster",
      "monsterType": [
        "Effect"
      ]
    },
    {
      "name": "Mystic Swordsman LV2",
      "rarity": "R",
      "cardType": "Monster",
      "monsterType": [
        "Effect"
      ]
    },
    {
      "name": "Mystic Swordsman LV4",
      "rarity": "UR",
      "cardType": "Monster",
      "monsterType": [
        "Effect"
      ]
    },
    {
      "name": "Armed Dragon LV3",
      "rarity": "C",
      "cardType": "Monster",
      "monsterType": [
        "Effect"
      ]
    },
    {
      "name": "Armed Dragon LV5",
      "rarity": "R",
      "cardType": "Monster",
      "monsterType": [
        "Effect"
      ]
    },
    {
      "name": "Armed Dragon LV7",
      "rarity": "UR",
      "cardType": "Monster",
      "monsterType": [
        "Effect"
      ]
    },
    {
      "name": "Horus' Servant",
      "rarity": "C",
      "cardType": "Monster",
      "monsterType": [
        "Effect"
      ]
    },
    {
      "name": "Red-Eyes B. Chick",
      "rarity": "C",
      "cardType": "Monster",
      "monsterType": [
        "Effect"
      ]
    },
    {
      "name": "Malice Doll of Demise",
      "rarity": "C",
      "cardType": "Monster",
      "monsterType": [
        "Effect"
      ]
    },
    {
      "name": "Ninja Grandmaster Sasuke",
      "rarity": "R",
      "cardType": "Monster",
      "monsterType": [
        "Effect"
      ]
    },
    {
      "name": "Rafflesia Seduction",
      "rarity": "R",
      "cardType": "Monster",
      "monsterType": [
        "Effect"
      ]
    },
    {
      "name": "Ultimate Baseball Kid",
      "rarity": "C",
      "cardType": "Monster",
      "monsterType": [
        "Effect"
      ]
    },
    {
      "name": "Mobius the Frost Monarch",
      "rarity": "SR",
      "cardType": "Monster",
      "monsterType": [
        "Effect"
      ]
    },
    {
      "name": "Element Dragon",
      "rarity": "C",
      "cardType": "Monster",
      "monsterType": [
        "Effect"
      ]
    },
    {
      "name": "Element Soldier",
      "rarity": "C",
      "cardType": "Monster",
      "monsterType": [
        "Effect"
      ]
    },
    {
      "name": "Howling Insect",
      "rarity": "C",
      "cardType": "Monster",
      "monsterType": [
        "Effect"
      ]
    },
    {
      "name": "Masked Dragon",
      "rarity": "C",
      "cardType": "Monster",
      "monsterType": [
        "Effect"
      ]
    },
    {
      "name": "Mind on Air",
      "rarity": "R",
      "cardType": "Monster",
      "monsterType": [
        "Effect"
      ]
    },
    {
      "name": "Unshaven Angler",
      "rarity": "C",
      "cardType": "Monster",
      "monsterType": [
        "Effect"
      ]
    },
    {
      "name": "The Trojan Horse",
      "rarity": "C",
      "cardType": "Monster",
      "monsterType": [
        "Effect"
      ]
    },
    {
      "name": "Nobleman-Eater Bug",
      "rarity": "C",
      "cardType": "Monster",
      "monsterType": [
        "Effect"
      ]
    },
    {
      "name": "Enraged Muka Muka",
      "rarity": "C",
      "cardType": "Monster",
      "monsterType": [
        "Effect"
      ]
    },
    {
      "name": "Hade-Hane",
      "rarity": "C",
      "cardType": "Monster",
      "monsterType": [
        "Effect"
      ]
    },
    {
      "name": "Penumbral Soldier Lady",
      "rarity": "SR",
      "cardType": "Monster",
      "monsterType": [
        "Effect"
      ]
    },
    {
      "name": "Ojama King",
      "rarity": "R",
      "cardType": "Monster",
      "monsterType": [
        "Fusion"
      ]
    },
    {
      "name": "Master of Oz",
      "rarity": "R",
      "cardType": "Monster",
      "monsterType": [
        "Fusion"
      ]
    },
    {
      "name": "Sanwitch",
      "rarity": "C",
      "cardType": "Monster",
      "monsterType": [
        "Fusion"
      ]
    },
    {
      "name": "Dark Factory of Mass Production",
      "rarity": "C",
      "cardType": "Spell"
    },
    {
      "name": "Hammer Shot",
      "rarity": "R",
      "cardType": "Spell"
    },
    {
      "name": "Mind Wipe",
      "rarity": "C",
      "cardType": "Spell"
    },
    {
      "name": "Abyssal Designator",
      "rarity": "C",
      "cardType": "Spell"
    },
    {
      "name": "Level Up!",
      "rarity": "C",
      "cardType": "Spell"
    },
    {
      "name": "Inferno Fire Blast",
      "rarity": "UR",
      "cardType": "Spell"
    },
    {
      "name": "Ectoplasmer",
      "rarity": "SR",
      "cardType": "Spell"
    },
    {
      "name": "The Graveyard in the Fourth Dimension",
      "rarity": "C",
      "cardType": "Spell"
    },
    {
      "name": "Two-Man Cell Battle",
      "rarity": "C",
      "cardType": "Spell"
    },
    {
      "name": "Big Wave Small Wave",
      "rarity": "C",
      "cardType": "Spell"
    },
    {
      "name": "Fusion Weapon",
      "rarity": "C",
      "cardType": "Spell"
    },
    {
      "name": "Ritual Weapon",
      "rarity": "C",
      "cardType": "Spell"
    },
    {
      "name": "Taunt",
      "rarity": "C",
      "cardType": "Trap"
    },
    {
      "name": "Absolute End",
      "rarity": "C",
      "cardType": "Trap"
    },
    {
      "name": "Spirit Barrier",
      "rarity": "R",
      "cardType": "Trap"
    },
    {
      "name": "Ninjitsu Art of Decoy",
      "rarity": "C",
      "cardType": "Trap"
    },
    {
      "name": "Enervating Mist",
      "rarity": "R",
      "cardType": "Trap"
    },
    {
      "name": "Heavy Slump",
      "rarity": "C",
      "cardType": "Trap"
    },
    {
      "name": "Greed",
      "rarity": "SR",
      "cardType": "Trap"
    },
    {
      "name": "Mind Crush",
      "rarity": "C",
      "cardType": "Trap"
    },
    {
      "name": "Null and Void",
      "rarity": "SR",
      "cardType": "Trap"
    },
    {
      "name": "Gorgon's Eye",
      "rarity": "C",
      "cardType": "Trap"
    },
    {
      "name": "Cemetery Bomb",
      "rarity": "C",
      "cardType": "Trap"
    },
    {
      "name": "Hallowed Life Barrier",
      "rarity": "SR",
      "cardType": "Trap"
    }
  ]
}