{
  "name": "Tactical Evolution",
  "shortName": "taev",
  "list": [
    {
      "name": "Gemini Summoner",
      "rarity": "SCR",
      "cardType": "Monster",
      "monsterType": [
        "Effect"
      ]
    },
    {
      "name": "Alien Shocktrooper",
      "rarity": "C",
      "cardType": "Monster",
      "monsterType": [
        "Normal"
      ]
    },
    {
      "name": "Volcanic Rat",
      "rarity": "C",
      "cardType": "Monster",
      "monsterType": [
        "Normal"
      ]
    },
    {
      "name": "Renge, Gatekeeper of Dark World",
      "rarity": "C",
      "cardType": "Monster",
      "monsterType": [
        "Normal"
      ]
    },
    {
      "name": "Hunter Dragon",
      "rarity": "R",
      "cardType": "Monster",
      "monsterType": [
        "Normal"
      ]
    },
    {
      "name": "Venom Cobra",
      "rarity": "C",
      "cardType": "Monster",
      "monsterType": [
        "Normal"
      ]
    },
    {
      "name": "Rainbow Dragon",
      "rarity": "SCR",
      "cardType": "Monster",
      "monsterType": [
        "Effect"
      ]
    },
    {
      "name": "Chrysalis Pantail",
      "rarity": "C",
      "cardType": "Monster",
      "monsterType": [
        "Effect"
      ]
    },
    {
      "name": "Chrysalis Chicky",
      "rarity": "C",
      "cardType": "Monster",
      "monsterType": [
        "Effect"
      ]
    },
    {
      "name": "Chrysalis Pinny",
      "rarity": "C",
      "cardType": "Monster",
      "monsterType": [
        "Effect"
      ]
    },
    {
      "name": "Chrysalis Larva",
      "rarity": "C",
      "cardType": "Monster",
      "monsterType": [
        "Effect"
      ]
    },
    {
      "name": "Chrysalis Mole",
      "rarity": "C",
      "cardType": "Monster",
      "monsterType": [
        "Effect"
      ]
    },
    {
      "name": "Necro Gardna",
      "rarity": "SR",
      "cardType": "Monster",
      "monsterType": [
        "Effect"
      ]
    },
    {
      "name": "Vennominaga the Deity of Poisonous Snakes",
      "rarity": "SCR",
      "cardType": "Monster",
      "monsterType": [
        "Effect"
      ]
    },
    {
      "name": "Vennominon the King of Poisonous Snakes",
      "rarity": "UR",
      "cardType": "Monster",
      "monsterType": [
        "Effect"
      ]
    },
    {
      "name": "Venom Snake",
      "rarity": "C",
      "cardType": "Monster",
      "monsterType": [
        "Effect"
      ]
    },
    {
      "name": "Venom Boa",
      "rarity": "C",
      "cardType": "Monster",
      "monsterType": [
        "Effect"
      ]
    },
    {
      "name": "Venom Serpent",
      "rarity": "C",
      "cardType": "Monster",
      "monsterType": [
        "Effect"
      ]
    },
    {
      "name": "Elemental Hero Neos Alius",
      "rarity": "SR",
      "cardType": "Monster",
      "monsterType": [
        "Effect"
      ]
    },
    {
      "name": "Chthonian Emperor Dragon",
      "rarity": "UR",
      "cardType": "Monster",
      "monsterType": [
        "Effect"
      ]
    },
    {
      "name": "Aquarian Alessa",
      "rarity": "SR",
      "cardType": "Monster",
      "monsterType": [
        "Effect"
      ]
    },
    {
      "name": "Lucky Pied Piper",
      "rarity": "SR",
      "cardType": "Monster",
      "monsterType": [
        "Effect"
      ]
    },
    {
      "name": "Grasschopper",
      "rarity": "R",
      "cardType": "Monster",
      "monsterType": [
        "Effect"
      ]
    },
    {
      "name": "Goggle Golem",
      "rarity": "C",
      "cardType": "Monster",
      "monsterType": [
        "Effect"
      ]
    },
    {
      "name": "Dawnbreak Gardna",
      "rarity": "C",
      "cardType": "Monster",
      "monsterType": [
        "Effect"
      ]
    },
    {
      "name": "Doom Shaman",
      "rarity": "SR",
      "cardType": "Monster",
      "monsterType": [
        "Effect"
      ]
    },
    {
      "name": "King Pyron",
      "rarity": "C",
      "cardType": "Monster",
      "monsterType": [
        "Effect"
      ]
    },
    {
      "name": "Shadow Delver",
      "rarity": "C",
      "cardType": "Monster",
      "monsterType": [
        "Effect"
      ]
    },
    {
      "name": "Flint Lock",
      "rarity": "C",
      "cardType": "Monster",
      "monsterType": [
        "Effect"
      ]
    },
    {
      "name": "Gravitic Orb",
      "rarity": "C",
      "cardType": "Monster",
      "monsterType": [
        "Effect"
      ]
    },
    {
      "name": "Phantom Cricket",
      "rarity": "C",
      "cardType": "Monster",
      "monsterType": [
        "Effect"
      ]
    },
    {
      "name": "Crystal Seer",
      "rarity": "UR",
      "cardType": "Monster",
      "monsterType": [
        "Effect"
      ]
    },
    {
      "name": "Neo Space Pathfinder",
      "rarity": "R",
      "cardType": "Monster",
      "monsterType": [
        "Effect"
      ]
    },
    {
      "name": "Frost and Flame Dragon",
      "rarity": "SCR",
      "cardType": "Monster",
      "monsterType": [
        "Effect"
      ]
    },
    {
      "name": "Desert Twister",
      "rarity": "UR",
      "cardType": "Monster",
      "monsterType": [
        "Effect"
      ]
    },
    {
      "name": "Ritual Raven",
      "rarity": "C",
      "cardType": "Monster",
      "monsterType": [
        "Effect"
      ]
    },
    {
      "name": "Razor Lizard",
      "rarity": "C",
      "cardType": "Monster",
      "monsterType": [
        "Effect"
      ]
    },
    {
      "name": "Light Effigy",
      "rarity": "C",
      "cardType": "Monster",
      "monsterType": [
        "Effect"
      ]
    },
    {
      "name": "Dark Effigy",
      "rarity": "C",
      "cardType": "Monster",
      "monsterType": [
        "Effect"
      ]
    },
    {
      "name": "Zombie Master",
      "rarity": "SR",
      "cardType": "Monster",
      "monsterType": [
        "Effect"
      ]
    },
    {
      "name": "Neo-Spacian Marine Dolphin",
      "rarity": "C",
      "cardType": "Monster",
      "monsterType": [
        "Fusion"
      ]
    },
    {
      "name": "Elemental Hero Marine Neos",
      "rarity": "R",
      "cardType": "Monster",
      "monsterType": [
        "Fusion"
      ]
    },
    {
      "name": "Elemental Hero Darkbright",
      "rarity": "UR",
      "cardType": "Monster",
      "monsterType": [
        "Fusion"
      ]
    },
    {
      "name": "Elemental Hero Magma Neos",
      "rarity": "SCR",
      "cardType": "Monster",
      "monsterType": [
        "Fusion"
      ]
    },
    {
      "name": "Ojama Knight",
      "rarity": "C",
      "cardType": "Monster",
      "monsterType": [
        "Fusion"
      ]
    },
    {
      "name": "Fifth Hope",
      "rarity": "SR",
      "cardType": "Spell"
    },
    {
      "name": "Reverse of Neos",
      "rarity": "C",
      "cardType": "Spell"
    },
    {
      "name": "Convert Contact",
      "rarity": "C",
      "cardType": "Spell"
    },
    {
      "name": "Cocoon Party",
      "rarity": "C",
      "cardType": "Spell"
    },
    {
      "name": "NEX",
      "rarity": "C",
      "cardType": "Spell"
    },
    {
      "name": "Cocoon Rebirth",
      "rarity": "C",
      "cardType": "Spell"
    },
    {
      "name": "Venom Swamp",
      "rarity": "C",
      "cardType": "Spell"
    },
    {
      "name": "Snake Rain",
      "rarity": "R",
      "cardType": "Spell"
    },
    {
      "name": "Venom Shot",
      "rarity": "C",
      "cardType": "Spell"
    },
    {
      "name": "Cyberdark Impact!",
      "rarity": "SCR",
      "cardType": "Spell"
    },
    {
      "name": "Flint Missile",
      "rarity": "C",
      "cardType": "Spell"
    },
    {
      "name": "Double Summon",
      "rarity": "R",
      "cardType": "Spell"
    },
    {
      "name": "Summoner's Art",
      "rarity": "R",
      "cardType": "Spell"
    },
    {
      "name": "Creature Seizure",
      "rarity": "C",
      "cardType": "Spell"
    },
    {
      "name": "Phalanx Pike",
      "rarity": "R",
      "cardType": "Spell"
    },
    {
      "name": "Symbols of Duty",
      "rarity": "R",
      "cardType": "Spell"
    },
    {
      "name": "Amulet of Ambition",
      "rarity": "C",
      "cardType": "Spell"
    },
    {
      "name": "Broken Bamboo Sword",
      "rarity": "C",
      "cardType": "Spell"
    },
    {
      "name": "Mirror Gate",
      "rarity": "SR",
      "cardType": "Trap"
    },
    {
      "name": "Hero Counterattack",
      "rarity": "C",
      "cardType": "Trap"
    },
    {
      "name": "Cocoon Veil",
      "rarity": "C",
      "cardType": "Trap"
    },
    {
      "name": "Snake Whistle",
      "rarity": "C",
      "cardType": "Trap"
    },
    {
      "name": "Damage = Reptile",
      "rarity": "R",
      "cardType": "Trap"
    },
    {
      "name": "Snake Deity's Command",
      "rarity": "R",
      "cardType": "Trap"
    },
    {
      "name": "Rise of the Snake Deity",
      "rarity": "C",
      "cardType": "Trap"
    },
    {
      "name": "Ambush Fangs",
      "rarity": "C",
      "cardType": "Trap"
    },
    {
      "name": "Venom Burn",
      "rarity": "C",
      "cardType": "Trap"
    },
    {
      "name": "Common Charity",
      "rarity": "R",
      "cardType": "Trap"
    },
    {
      "name": "Destructive Draw",
      "rarity": "C",
      "cardType": "Trap"
    },
    {
      "name": "Shield Spear",
      "rarity": "C",
      "cardType": "Trap"
    },
    {
      "name": "Strike Slash",
      "rarity": "C",
      "cardType": "Trap"
    },
    {
      "name": "Spell Reclamation",
      "rarity": "R",
      "cardType": "Trap"
    },
    {
      "name": "Trap Reclamation",
      "rarity": "R",
      "cardType": "Trap"
    },
    {
      "name": "Gift Card",
      "rarity": "SP",
      "cardType": "Trap"
    },
    {
      "name": "The Gift of Greed",
      "rarity": "C",
      "cardType": "Trap"
    },
    {
      "name": "Counter Counter",
      "rarity": "C",
      "cardType": "Trap"
    },
    {
      "name": "Ocean's Keeper",
      "rarity": "R",
      "cardType": "Monster",
      "monsterType": [
        "Effect"
      ]
    },
    {
      "name": "Thousand-Eyes Jellyfish",
      "rarity": "R",
      "cardType": "Monster",
      "monsterType": [
        "Effect"
      ]
    },
    {
      "name": "Cranium Fish",
      "rarity": "SCR",
      "cardType": "Monster",
      "monsterType": [
        "Effect"
      ]
    },
    {
      "name": "Abyssal Kingshark",
      "rarity": "SCR",
      "cardType": "Monster",
      "monsterType": [
        "Effect"
      ]
    },
    {
      "name": "Mormolith",
      "rarity": "SCR",
      "cardType": "Monster",
      "monsterType": [
        "Effect"
      ]
    },
    {
      "name": "Fossil Tusker",
      "rarity": "R",
      "cardType": "Monster",
      "monsterType": [
        "Effect"
      ]
    },
    {
      "name": "Phantom Dragonray Bronto",
      "rarity": "R",
      "cardType": "Monster",
      "monsterType": [
        "Effect"
      ]
    },
    {
      "name": "Il Blud",
      "rarity": "SCR",
      "cardType": "Monster",
      "monsterType": [
        "Effect"
      ]
    },
    {
      "name": "Blazewing Butterfly",
      "rarity": "SR",
      "cardType": "Monster",
      "monsterType": [
        "Effect"
      ]
    }
  ]
}