{
  "name": "Harry_Blue",
  "list": [
    {"name": "Alector, Sovereign of Birds"},
    {"name": "Aqua Spirit"},
    {"name": "Armored Bee"},
    {"name": "Battlin' Boxer Veil"},
    {"name": "Bazoo the Soul-Eater"},
    {"name": "Blaster, Dragon Ruler of Infernos"},
    {"name": "Blizzard Dragon"},
    {"name": "BOXer"},
    {"name": "Card Trooper"},
    {"name": "Chow Len the Prophet"},
    {"name": "Cyber Phoenix"},
    {"name": "D.D. Assailant"},
    {"name": "D.D. Warrior"},
    {"name": "Deep Diver"},
    {"name": "Diskblade Rider"},
    {"name": "Dragon Ice"},
    {"name": "Drillroid"},
    {"name": "Exploder Dragon"},
    {"name": "Fencing Fire Ferret"},
    {"name": "Fire Hand"},
    {"name": "Flame Tiger"},
    {"name": "Flamvell Firedog"},
    {"name": "Gigantes"},
    {"name": "Gillagillancer"},
    {"name": "Graydle Cobra"},
    {"name": "Gren Maju Da Eiza"},
    {"name": "Guardian Sphinx"},
    {"name": "Ice Hand"},
    {"name": "Lindbloom"},
    {"name": "Masked Dragon"},
    {"name": "Master of the Flaming Dragonswords"},
    {"name": "Mecha Phantom Beast Stealthray"},
    {"name": "Mecha Phantom Beast Tetherwolf"},
    {"name": "Morphing Jar #2"},
    {"name": "Necroface"},
    {"name": "Pyrotech Mech - Shiryu"},
    {"name": "Raging Flame Sprite"},
    {"name": "Redox, Dragon Ruler of Boulders"},
    {"name": "Sasuke Samurai"},
    {"name": "Sasuke Samurai #4"},
    {"name": "Shocktopus"},
    {"name": "Silpheed"},
    {"name": "Sinister Serpent"},
    {"name": "Skystarray"},
    {"name": "Slate Warrior"},
    {"name": "Snowman Eater"},
    {"name": "Spear Dragon"},
    {"name": "Tempest, Dragon Ruler of Storms"},
    {"name": "The Calculator"},
    {"name": "The Tricky"},
    {"name": "Tidal, Dragon Ruler of Waterfalls"},
    {"name": "Tribe-Infecting Virus"},
    {"name": "Twin-Headed Behemoth"},
    {"name": "Watch Dog"},
    {"name": "Wind-Up Rabbit"},
    {"name": "Yaksha"},
    {"name": "Yomi Ship"},
    {"name": "Bait Doll"},
    {"name": "Book of Moon"},
    {"name": "Burial from a Different Dimension"},
    {"name": "Card Destruction"},
    {"name": "Card Trader"},
    {"name": "Chaos Zone"},
    {"name": "Creature Swap"},
    {"name": "D.D.R. - Different Dimension Reincarnation"},
    {"name": "Dark Core"},
    {"name": "Dark World Lightning"},
    {"name": "Dimension Fusion"},
    {"name": "Double Spell"},
    {"name": "Enemy Controller"},
    {"name": "Foolish Burial"},
    {"name": "Forbidden Lance"},
    {"name": "Giant Trunade"},
    {"name": "Gold Sarcophagus"},
    {"name": "Graceful Charity"},
    {"name": "Hammer Shot"},
    {"name": "Hippo Carnival"},
    {"name": "Lightning Vortex"},
    {"name": "Night Beam"},
    {"name": "Offerings to the Doomed"},
    {"name": "Pot of Duality"},
    {"name": "Shard of Greed"},
    {"name": "Blazing Mirror Force"},
    {"name": "Bottomless Trap Hole"},
    {"name": "Compulsory Escape Device"},
    {"name": "Crevice Into the Different Dimension"},
    {"name": "Damage Condenser"},
    {"name": "Dimension Gate"},
    {"name": "Dimensional Prison"},
    {"name": "Ferret Flames"},
    {"name": "Fiend Comedian"},
    {"name": "Fiendish Chain"},
    {"name": "Hope for Escape"},
    {"name": "Karma Cut"},
    {"name": "Magic Cylinder"},
    {"name": "Magic Jammer"},
    {"name": "Monster Rebone"},
    {"name": "Multiple Destruction"},
    {"name": "Needle Ceiling"},
    {"name": "Phoenix Wing Wind Blast"},
    {"name": "Reckless Greed"},
    {"name": "Return from the Different Dimension"},
    {"name": "Royal Decree"},
    {"name": "Royal Oppression"},
    {"name": "Solemn Judgment"},
    {"name": "Solemn Scolding"},
    {"name": "Time Seal"},
    {"name": "Trap Stun"},
    {"name": "Wall of Disruption"},
    {"name": "Widespread Ruin"},
    {"name": "Windstorm of Etaqua"},
    {"name": "Xing Zhen Hu"}
  ]
}