{
  "name": "Harry_Red",
  "list": [
    {"name": "Armageddon Knight"},
    {"name": "Artifact Moralltach"},
    {"name": "Bacon Saver"},
    {"name": "Banisher of the Radiance"},
    {"name": "Black Dragon Collapserpent"},
    {"name": "Blackwing - Zephyros the Elite"},
    {"name": "Chaos Necromancer"},
    {"name": "Chaos Sorcerer"},
    {"name": "Cyber Valley"},
    {"name": "D.D. Crow"},
    {"name": "D.D. Warrior Lady"},
    {"name": "Dark Magician of Chaos"},
    {"name": "Destiny Hero - Disk Commander"},
    {"name": "Dimensional Alchemist"},
    {"name": "Doomcaliber Knight"},
    {"name": "Edge Imp Sabers"},
    {"name": "Ehren, Lightsworn Monk"},
    {"name": "Electromagnetic Turtle"},
    {"name": "Endless Decay"},
    {"name": "Evilswarm Coppelia"},
    {"name": "Evilswarm Salamandra"},
    {"name": "Fossil Dyna Pachycephalo"},
    {"name": "Genex Ally Crusher"},
    {"name": "Goblin Zombie"},
    {"name": "Holding Arms"},
    {"name": "Holding Legs"},
    {"name": "Honest"},
    {"name": "Interplanetarypurplythorny Dragon"},
    {"name": "Jain, Lightsworn Paladin"},
    {"name": "Juragedo"},
    {"name": "Kuribandit"},
    {"name": "Kycoo the Ghost Destroyer"},
    {"name": "Lightpulsar Dragon"},
    {"name": "Lyla, Lightsworn Sorceress"},
    {"name": "Majesty's Fiend"},
    {"name": "Malevolent Mech - Goku En"},
    {"name": "Mathematician"},
    {"name": "Mezuki"},
    {"name": "Morphing Jar"},
    {"name": "Mystic Tomato"},
    {"name": "Necro Gardna"},
    {"name": "Peropero Cerperus"},
    {"name": "Phantom of Chaos"},
    {"name": "Raiden, Hand of the Lightsworn"},
    {"name": "Rainbow Kuriboh"},
    {"name": "Ryko, Lightsworn Hunter"},
    {"name": "Ryu Kokki"},
    {"name": "Sangan"},
    {"name": "Shadoll Beast"},
    {"name": "Shadoll Dragon"},
    {"name": "Shadoll Squamata"},
    {"name": "Spirit Reaper"},
    {"name": "Thunder King Rai-Oh"},
    {"name": "Vanity's Fiend"},
    {"name": "White Dragon Wyverbuster"},
    {"name": "Zombie Master"},
    {"name": "Allure of Darkness"},
    {"name": "Card of Safe Return"},
    {"name": "Charge of the Light Brigade"},
    {"name": "Cold Wave"},
    {"name": "Creeping Darkness"},
    {"name": "Cursed Armaments"},
    {"name": "Dark Eruption"},
    {"name": "Dark World Dealings"},
    {"name": "Double Cyclone"},
    {"name": "Dragged Down into the Grave"},
    {"name": "Ectoplasmer"},
    {"name": "Emergency Provisions"},
    {"name": "Hand Destruction"},
    {"name": "Last Will"},
    {"name": "Mirage of Nightmare"},
    {"name": "Monster Gate"},
    {"name": "Monster Reincarnation"},
    {"name": "My Body as a Shield"},
    {"name": "Mystical Space Typhoon"},
    {"name": "Nobleman of Crossout"},
    {"name": "Pot of Avarice"},
    {"name": "Premature Burial"},
    {"name": "Reasoning"},
    {"name": "Smashing Ground"},
    {"name": "Supply Squad"},
    {"name": "Tribute to the Doomed"},
    {"name": "Twin Twisters"},
    {"name": "Breakthrough Skill"},
    {"name": "Burst Rebirth"},
    {"name": "Call of the Haunted"},
    {"name": "Chain Whirlwind"},
    {"name": "Compulsory Evacuation Device"},
    {"name": "Crush Card Virus"},
    {"name": "Damage Gate"},
    {"name": "Dark Bribe"},
    {"name": "Divine Wrath"},
    {"name": "Dust Tornado"},
    {"name": "Escape from the Dark Dimension"},
    {"name": "Limit Reverse"},
    {"name": "Magic Drain"},
    {"name": "Magical Hats"},
    {"name": "Mind Crush"},
    {"name": "Miracle's Wake"},
    {"name": "Mirror Force"},
    {"name": "Oasis of Dragon Souls"},
    {"name": "Pinpoint Guard"},
    {"name": "Powerful Rebirth"},
    {"name": "Raigeki Break"},
    {"name": "Seven Tools of the Bandit"},
    {"name": "Skill Successor"},
    {"name": "Skull Lair"},
    {"name": "Solemn Warning"},
    {"name": "Time Machine"},
    {"name": "Torrential Tribute"},
    {"name": "Trap Dustshoot"},
    {"name": "Wild Tornado"}
  ]
}